temperaturemin,temperaturemax,precipitation,snowfall,snowdepth,avgwindspeed,rain
64.9,87.1,0.93,0,0,6.93,1
70,90,0.76,0,0,3.36,1
75,93,0,0,0,7.61,1
61,73.9,0.11,0,0,3.8,1
64.9,84.9,0,0,0,2.46,1
72,91,0,0,0,6.26,0
73,86,0,0,0,5.59,0
60.1,73.9,0,0,0,3.8,1
63,81,0.96,0,0,10.07,1
64.9,73,0.02,0,0,6.71,1
60.1,71.1,0,0,0,9.62,0
55.9,84.9,0,0,0,2.24,0
46.9,80.1,0,0,0,4.03,0
34,61,0,0,0,1.79,0
51.1,75.9,0.62,0,0,14.54,1
21,46,0,0,0,3.13,0
28,55,0.19,0,0,6.04,1
61,70,0.07,0,0,10.51,1
44.1,57.9,0,0,0,4.47,1
54,71.1,0,0,0,10.74,0
21.9,44.1,0,0,0,4.7,0
33.1,46.9,0,0,0,3.58,0
34,54,0,0,0,4.7,0
30.9,46,0,0,0,7.38,1
35.1,37.9,1.38,0,0,12.75,1
57,68,0.62,0,0,3.36,1
41,51.1,0,0,0,10.07,0
53.1,73,0,0,0,8.5,1
48,68,0.07,0,0,6.49,1
60.1,82,0,0,0,7.16,1
61,84.9,0,0,0,5.59,0
69.1,82,0.69,0,0,6.49,1
73.9,96.1,0,0,0,7.61,0
71.1,93.9,0,0,0,5.59,0
64,95,0,0,0,4.92,0
70,82.9,0.12,0,0,5.14,1
69.1,87.1,0,0,0,6.93,0
66,84,0,0,0,4.7,0
72,93,0,0,0,5.59,1
72,91.9,0.28,0,0,10.29,1
73.9,95,0.06,0,0,8.28,1
73.9,82.9,0.27,0,0,8.95,1
72,96.1,0.18,0,0,5.82,1
68,88,0,0,0,3.36,0
70,99,0,0,0,7.61,0
71.1,84,0.03,0,0,2.24,1
68,87.1,0,0,0,3.8,0
70,93.9,0,0,0,4.7,0
63,87.1,0,0,0,6.26,0
63,79,0.57,0,0,7.38,1
68,80.1,0,0,0,8.05,1
59,82,0,0,0,4.25,0
57,87.1,0,0,0,2.01,0
64.9,77,0,0,0,2.01,0
62.1,81,0,0,0,5.59,0
63,68,0.32,0,0,6.49,1
30.2,59,0,0,0,3.8,0
35.1,61,0.01,0,0,6.93,0
52,71.1,0.08,0,0,5.37,0
54,75,0.06,0,0,7.16,0
41,55.9,0,0,0,6.49,0
23.2,45,0,0,0,1.79,0
30.2,62.1,0,0,0,7.61,0
50,73.9,0,0,0,9.17,0
37,48.9,0.33,0,0,2.68,0
45,69.1,0.28,0,0,10.29,0
33.1,62.1,0,0,0,7.16,0
33.1,59,0,0,0,4.47,0
27.1,46.9,0,0,0,6.71,0
30.2,54,0,0,0,8.5,0
33.1,64.9,0,0,0,9.62,0
34,50,0,0,0,2.46,0
25.2,35.1,0,0,0,7.16,0
27.1,55.9,0,0,1.18,8.95,0
29.1,53.1,0,0,0,4.47,0
48.9,72,0.5,0,0,8.28,0
52,72,0,0,0,9.17,0
20.1,61,0.36,0.2,0,10.96,0
36,55.9,0.29,0,0,8.95,0
31.1,36,0.46,0,0,10.29,0
46,75.9,0,0,0,8.05,0
36,72,0,0,0,4.03,0
54,81,0,0,0,7.16,0
39,71.1,1.32,0,0,10.51,0
48.9,80.1,0.47,0,0,6.71,0
51.1,84,0,0,0,5.14,0
51.1,69.1,0,0,0,4.7,0
53.1,75.9,0,0,0,5.82,0
59,78.1,0,0,0,3.58,0
45,73,0,0,0,2.01,0
60.1,87.1,0,0,0,7.83,0
63,82,0,0,0,3.58,0
66,90,0.22,0,0,5.82,0
62.1,84.9,0,0,0,2.91,0
69.1,90,0.29,0,0,3.8,0
68,93.9,0.58,0,0,4.7,0
64.9,84.9,0,0,0,5.14,0
64.9,86,0,0,0,5.82,0
69.1,93,0,0,0,4.03,0
60.1,84.9,0,0,0,3.8,0
66,90,0,0,0,5.82,0
66.9,96.1,0,0,0,10.51,0
66,90,0,0,0,3.36,0
64,86,0,0,0,5.82,0
73,79,1.16,0,0,2.68,0
66,82,0.08,0,0,2.68,0
64.9,75.9,0.71,0,0,7.38,0
66.9,80.1,0,0,0,1.34,0
69.1,81,0,0,0,3.58,0
66,81,0.56,0,0,6.71,0
66.9,82,0,0,0,3.8,0
70,90,1.06,0,0,2.24,0
63,81,0,0,0,8.72,0
73,91,0,0,0,6.49,0
73,93,0,0,0,4.7,0
71.1,96.1,0,0,0,7.38,0
71.1,91,0,0,0,3.8,0
66,75.9,0.03,0,0,5.14,0
68,81,0,0,0,2.01,0
62.1,71.1,0.03,0,0,6.26,0
66.9,82.9,0.01,0,0,3.13,0
59,81,0.01,0,0,3.36,0
64,73,0.01,0,0,1.12,0
55.9,79,0,0,0,0.89,0
41,66,0,0,0,3.13,0
55,80.1,0,0,0,9.4,0
51.1,73.9,0,0,0,4.03,0
45,75.9,0,0,0,4.47,0
50,84,0,0,0,5.82,0
46.9,66.9,0,0,0,3.36,0
39.9,66,0,0,0,6.71,0
50,68,0.21,0,0,10.74,0
43,66.9,0.43,0,0,9.4,0
35.1,46.9,0.05,0,0,4.25,0
39.9,52,0,0,0,2.46,0
30.2,60.1,0,0,0,1.57,0
37,52,0.32,0,0,3.13,0
39,60.1,0,0,0,3.58,0
31.1,39,0.07,0,0,2.91,0
37.9,50,0,0,0,4.03,0
46,66,1.71,0,0,7.38,0
30.2,57.9,0,0,0,1.57,0
28.2,41,0.02,0,0,5.82,0
23.2,51.1,0,0,0,4.7,0
11.1,27.1,0,0,0,5.37,0
22.1,39,0,0,0,1.57,0
31.1,41,0,0,0,3.13,0
27.1,51.1,0,0,0,4.7,0
41,60.1,0.49,0,0,5.37,0
30.2,59,0,0,0,2.91,0
35.1,48.9,0.14,0,0,5.82,0
29.1,62.1,0.39,0,0,13.42,0
27.1,50,0,0,0,6.26,0
29.1,54,0,0,0,5.59,0
18.1,39.9,0,0,0,3.36,0
28.2,35.1,0.72,3.19,3.94,6.26,0
23.2,45,0,0,3.15,3.13,0
34,61,0,0,0,4.92,0
37.9,75,0.02,0,0,13.87,0
48,64.9,0,0,0,3.8,0
39.9,54,0.34,0,0,4.92,0
55,82,0,0,0,2.91,0
59,79,0.02,0,0,7.83,1
46.9,61,0.14,0,0,8.72,1
45,57.9,0,0,0,6.26,0
48,68,0,0,0,5.82,0
37.9,71.1,0,0,0,2.01,0
55.9,63,0.88,0,0,4.7,1
42.1,73.9,0,0,0,0.89,0
46.9,63,0,0,0,5.82,0
52,62.1,0.45,0,0,8.28,1
57.9,73,0.01,0,0,5.14,1
37,57,0.19,0,0,5.82,1
36,54,0,0,0,7.38,1
30,55.9,0,0,0,2.01,0
33.1,46,0.45,0,0,6.49,1
25,36,0,0,0,3.36,0
28.9,48.9,0,0,0,2.91,0
28,45,0,0,0,2.01,0
24.1,48.9,0,0,0,2.24,0
25,53.1,0,0,0,0.45,0
19.9,48,0,0,0,5.37,0
21.9,42.1,0.05,0,0,8.95,1
19,37,0,0,0,2.46,0
23,57,0,0,0,3.58,0
35.1,66,0,0,0,1.79,0
27,41,0,0,0,7.61,0
23,59,0,0,0,2.46,0
36,52,0.29,0,0,2.46,1
33.1,42.1,0.29,0.2,0,9.62,1
35.1,73,0,0,0,2.01,0
39,52,0,0,0,4.7,0
39.9,78.1,0,0,0,5.59,0
54,88,0,0,0,4.7,0
57.9,82.9,0,0,0,3.58,0
62.1,90,0,0,0,10.29,0
41,57,0,0,0,7.61,0
72,91.9,0,0,0,13.87,0
42.1,68,0,0,0,4.47,0
64.9,93.9,0,0,0,7.61,1
66.9,82,0.12,0,0,4.92,1
57.9,79,0,0,0,2.68,0
62.1,82.9,0,0,0,5.82,0
64,87.1,0.41,0,0,6.71,1
69.1,84.9,0.29,0,0,6.49,1
71.1,88,0.01,0,0,4.7,1
71.1,93,0,0,0,3.8,0
72,93.9,0.01,0,0,2.46,1
77,93.9,0,0,0,4.47,0
73,100.9,0,0,0,8.05,0
73,98.1,0.64,0,0,7.61,1
75,97,0,0,0,7.83,1
79,100,0,0,0,9.62,0
73.9,93.9,0,0,0,5.14,0
73,89.1,0,0,0,5.59,0
64,78.1,0.12,0,0,2.91,1
71.1,91,0,0,0,3.8,0
73.9,88,0,0,0,7.61,0
75,96.1,0.1,0,0,6.49,1
66.9,90,0,0,0,3.36,0
72,89.1,0,0,0,4.25,1
70,90,0,0,0,2.68,0
64.9,97,0,0,0,2.24,0
71.1,91,0,0,0,8.95,1
57.9,88,0,0,0,5.37,0
64.9,88,0.03,0,0,3.8,1
63,87.1,0,0,0,3.58,0
60.1,96.1,0,0,0,4.03,0
60.1,93,0,0,0,2.01,0
64,93,0,0,0,4.7,0
70,96.1,0,0,0,8.5,0
71.1,99,0,0,0,6.71,0
70,96.1,0,0,0,7.83,0
68,77,1.84,0,0,7.83,1
46.9,69.1,0,0,0,4.03,0
46.9,82,0,0,0,5.59,0
57,88,0,0,0,3.8,0
52,64.9,0.1,0,0,2.24,1
43,68,0,0,0,2.91,0
46.9,78.1,0,0,0,5.82,0
36,64.9,0,0,0,5.82,0
46,63,0,0,0,8.5,0
45,55.9,0.02,0,0,4.03,1
39.9,66,0,0,0,4.03,0
39.9,70,0,0,0,1.79,0
54,66.9,0.38,0,0,8.28,1
39.9,64.9,0.09,0,0,7.16,1
46,63,0,0,0,5.14,0
19.9,42.1,0,0,0,2.24,0
36,52,0.4,0,0,7.61,1
16,35.1,0,0,0,10.07,0
21.9,46.9,0,0,0,0.89,0
28.9,61,0,0,0,2.91,0
26.1,46,0,0,0,0.67,0
19,35.1,0,0,0,4.03,0
32,46.9,0,0,0,4.7,1
28,46.9,0,0,0,7.16,1
17.1,32,0,0,0,5.82,0
37.9,43,0.37,0,0,6.26,1
28,48,0,0,0,2.68,0
28,55.9,0,0,0,4.47,0
34,53.1,0,0,0,4.47,1
35.1,48.9,0.92,0,0,8.05,1
30,54,0,0,0,2.01,0
21,51.1,0,0,0,1.12,0
25,61,0,0,0,6.93,0
34,63,0,0,0,5.37,0
52,78.1,0,0,0,10.74,0
28.9,53.1,0,0,0,3.36,0
35.1,53.1,0,0,0,10.74,0
46.9,64,0.05,0,0,2.91,1
55.9,75,0,0,0,5.82,0
52,75,0,0,0,12.75,0
50,82.9,0.45,0,0,6.71,1
39.9,48,1.05,0,0,7.83,1
37.9,55,0,0,0,6.26,0
37,64.9,0,0,0,8.95,1
46,79,0,0,0,6.49,0
53.1,82,0.06,0,0,5.14,1
52,72,0,0,0,3.8,0
57,73,0,0,0,12.3,1
46.9,72,0,0,0,5.14,0
55.9,84.9,0,0,0,11.18,0
55,73,0.01,0,0,5.82,1
54,78.1,0.01,0,0,5.82,1
62.1,87.1,0,0,0,11.18,0
68,82.9,0,0,0,10.29,1
68,87.1,0.21,0,0,12.97,1
63,79,0.12,0,0,4.7,1
57.9,72,0.17,0,0,7.16,1
57,82,0,0,0,2.68,1
59,89.1,0,0,0,4.03,0
66,91,0.09,0,0,7.38,1
70,95,0,0,0,2.91,0
66,84.9,0,0,0,6.93,0
69.1,90,0,0,0,5.82,0
69.1,90,0,0,0,4.7,0
72,96.1,0,0,0,7.38,1
66.9,93.9,0.24,0,0,5.59,1
68,91,0,0,0,8.5,0
66.9,91.9,0,0,0,4.92,0
72,96.1,0.02,0,0,11.41,1
70,89.1,0,0,0,4.03,0
68,93.9,0,0,0,3.58,1
68,93,0.04,0,0,4.47,1
64.9,93,0,0,0,3.13,0
73,89.1,0.22,0,0,6.26,1
69.1,87.1,0,0,0,8.72,0
63,89.1,0,0,0,6.04,0
68,88,0,0,0,2.68,0
73.9,97,0.07,0,0,4.92,1
73,99,0,0,0,4.92,0
73,84.9,1.16,0,0,2.68,1
71.1,93.9,0,0,0,2.46,0
77,95,0,0,0,4.92,0
73,96.1,0,0,0,5.59,0
64,88,0,0,0,1.79,0
66,84,0,0,0,5.82,0
60.1,86,0,0,0,2.01,0
66,87.1,0,0,0,2.91,0
66.9,82.9,0.43,0,0,3.36,1
66.9,78.1,0.03,0,0,3.8,1
68,84.9,0,0,0,2.91,0
61,84,0,0,0,4.25,0
55.9,75,0,0,0,6.71,0
59,82.9,1.04,0,0,6.26,1
54,68,0.84,0,0,10.51,1
39.9,69.1,0,0,0,1.57,0
43,72,0,0,0,1.12,0
36,66.9,0.17,0,0,4.03,1
46.9,55,1.43,0,0,11.41,1
33.1,53.1,0,0,0,5.82,0
62.1,78.1,0,0,0,10.51,0
60.1,77,0,0,0,4.7,0
48.9,73.9,0.18,0,0,12.08,1
34,53.1,0,0,0,5.82,0
45,71.1,0,0,0,4.7,0
36,53.1,0,0,0,2.91,0
61,68,0.08,0,0,7.83,1
42.1,64,0.56,0,0,11.86,1
26.1,55.9,0,0,0,4.7,0
39.9,64.9,0,0,0,6.49,0
35.1,68,0.01,0,0,7.83,1
33.1,66,0,0,0,5.59,0
44.1,60.1,0.61,0,0,8.05,1
44.1,59,0,0,0,12.97,0
32,62.1,0,0,0,4.47,0
36,68,0,0,0,10.07,0
42.1,63,0,0,0,2.46,0
37.9,75.9,0,0,0,3.58,0
51.1,72,0,0,0,3.8,0
63,75,0.49,0,0,6.26,1
64.9,89.1,0,0,0,6.26,0
72,93,0,0,0,6.49,0
75,102.9,0,0,0,4.92,0
71.1,100,0,0,0,3.8,1
73,96.1,0.23,0,0,3.36,1
68,80.1,0.45,0,0,4.03,1
71.1,93,1.09,0,0,7.38,1
70,90,0,0,0,4.03,0
73.9,99,0.14,0,0,6.93,1
66.9,91.9,0,0,0,2.01,0
72,93,0.05,0,0,5.82,1
73.9,93,0.49,0,0,6.26,1
72,87.1,0.13,0,0,8.95,1
66,91,0,0,0,5.59,0
68,77,0.02,0,0,4.7,1
64.9,84,0,0,0,3.13,0
73,87.1,0,0,0,7.61,1
68,89.1,0,0,0,4.47,0
72,88,1.85,0,0,3.58,1
63,80.1,0,0,0,1.57,0
48,77,0,0,0,3.13,0
66.9,88,0.12,0,0,7.61,1
50,64.9,0.23,0,0,6.71,1
44.1,78.1,0,0,0,3.8,0
44.1,70,0,0,0,2.01,0
50,80.1,0,0,0,1.34,0
62.1,66,0,0,0,12.08,0
37.9,57.9,0,0,0,5.14,0
34,64.9,0,0,0,3.58,0
45,55.9,0,0,0,12.3,0
46.9,59,0,0,0,8.05,1
30.9,63,0,0,0,2.46,0
39,69.1,0,0,0,4.47,0
27,57.9,0,0,0,0.89,0
48,57.9,0.09,0,0,5.59,1
37,57.9,0,0,0,15.43,1
44.1,53.1,0,0,0,6.26,1
27,45,0,0,0,1.34,0
37.9,52,0.37,0,0,6.26,1
25,53.1,0,0,0,6.26,0
44.1,60.1,0.01,0,0,7.83,0
28.9,59,0,0,0,5.14,0
25,53.1,0.03,0,0,4.47,1
45,63,0.05,0,0,10.51,1
32,46.9,0.39,0.71,0,4.03,1
36,44.1,0.92,0,0,2.46,1
32,42.1,0,0,0,6.93,0
33.1,62.1,0,0,0,3.58,0
28,62.1,0,0,0,7.83,0
37.9,55,0,0,0,3.8,0
35.1,48,0,0,0,7.38,0
32,50,0,0,0,6.49,0
37.9,66,0,0,0,3.58,0
39,63,0.04,0,0,2.68,0
57,82.9,0,0,0,7.61,0
57.9,80.1,0,0,0,7.61,0
44.1,64,0.01,0,0,3.8,0
41,61,0,0,0,9.4,0
52,64.9,0,0,0,7.61,0
48.9,64,0,0,0,11.63,0
50,60.1,0,0,0,12.3,0
55.9,84,0,0,0,7.16,0
64.9,81,0.3,0,0,9.62,0
61,86,0,0,0,2.46,0
41,73,0,0,0,2.91,0
64,82,0,0,0,6.04,0
70,86,0,0,0,8.5,0
59,80.1,0,0,0,4.25,0
64.9,80.1,0,0,0,5.14,0
69.1,93.9,0,0,0,2.01,0
73,89.1,0,0,0,6.71,0
66.9,89.1,0.77,0,0,0.67,0
64,82,0,0,0,4.47,0
73,91.9,0.66,0,0,2.01,0
71.1,90,0.08,0,0,5.59,0
66.9,81,0.05,0,0,5.59,0
72,87.1,0,0,0,6.93,0
71.1,89.1,0.3,0,0,4.03,0
68,84.9,0,0,0,2.91,0
57.9,63,0,0,0,11.41,0
62.1,66.9,0.07,0,0,7.16,0
50,73,0,0,0,1.79,0
55,72,0,0,0,4.92,0
50,71.1,0,0,0,4.03,0
48,69.1,0,0,0,6.93,0
34,54,0,0,0,6.93,1
28,35.1,0.8,0,0,5.82,1
30.9,46.9,0,0,0,6.49,0
32,64,0,0,0,11.41,0
19.9,39.9,0,0,0,7.83,0
27,48,0,0,0,3.13,0
21.9,42.1,0,0,0,3.36,0
41,61,0,0,0,2.46,0
34,50,0,0,0,6.93,0
26.1,64,0,0,0,8.5,0
33.1,48.9,0,0,0,7.38,0
28,48.9,0,0,0,4.25,0
41,57.9,0,0,0,3.58,0
30,57,0.01,0,0,2.46,1
46,59,0.73,0,0,6.49,1
46.9,72,0,0,0,7.61,0
44.1,57.9,0.04,0,0,4.47,1
52,82.9,0,0,0,11.41,0
63,82.9,0.25,0,0,11.18,1
59,75.9,0,0,0,6.71,0
53.1,80.1,0,0,0,6.49,0
63,90,0,0,0,8.72,0
57,71.1,0,0,0,9.62,0
55,66,0.01,0,0,2.68,1
42.1,70,0,0,0,12.53,0
50,69.1,0.04,0,0,11.41,1
62.1,84,0.02,0,0,13.87,1
48.9,70,0,0,0,7.83,1
55.9,86,0,0,0,4.92,0
60.1,70,0.01,0,0,6.71,1
62.1,91,0.13,0,0,4.25,1
66.9,89.1,0.31,0,0,5.37,1
69.1,93,0,0,0,7.38,0
73,93.9,0,0,0,9.17,1
66,86,0,0,0,6.93,0
63,86,0,0,0,6.93,0
64.9,89.1,0,0,0,9.17,0
66.9,90,0,0,0,7.38,1
70,91.9,0,0,0,8.05,0
57.9,84.9,0,0,0,5.14,0
66.9,89.1,0,0,0,4.25,0
78.1,104,0,0,0,4.25,0
75,102.9,0,0,0,10.51,0
72,98.1,0.06,0,0,6.04,1
73,93,0,0,0,6.49,0
59,91,0,0,0,3.36,0
66,96.1,0,0,0,4.25,0
60.1,95,0,0,0,3.58,0
61,82,0,0,0,5.59,1
66,91.9,0,0,0,4.47,0
64.9,86,0,0,0,5.59,0
63,89.1,0,0,0,5.82,0
66,93.9,0,0,0,4.7,0
63,84.9,0.04,0,0,5.14,1
37.9,73.9,0,0,0,1.79,0
39.9,66,0,0,0,5.37,0
30,55,0,0,0,3.8,0
34,61,0,0,0,4.25,1
34,51.1,0,0,0,6.26,0
46,61,0,0,0,3.13,1
46.9,78.1,0,0,0,7.61,0
36,48.9,0.06,0,0,3.13,1
36,63,0,0,0,3.36,0
33.1,54,0,0,0,5.82,0
36,45,0,0,0,5.82,0
54,75.9,0.01,0,0,9.17,1
28,44.1,0,0,0,6.26,0
46.9,66.9,0.16,0,0,10.74,1
36,57.9,0,0,0,3.58,0
19.9,35.1,0,0,0,4.47,0
50,73,0,0,0,8.5,0
48.9,68,0,0,0,13.42,1
21,39,0,0,0,3.8,0
37,64,0,0,0,13.42,0
36,60.1,0.83,0,0,8.5,1
61,77,0,0,0,19.01,1
43,66,0,0,0,8.05,0
27,46.9,0,0,0,4.92,0
30,62.1,0.28,0,0,6.04,1
45,73,0.29,0,0,14.54,1
30.9,55,0,0,0,8.72,0
35.1,61,0.01,0,0,4.25,1
21.9,43,0,0,0,5.82,0
39.9,64.9,0,0,0,9.84,0
44.1,68,0,0,0,5.14,0
28.9,57.9,0,0,0,6.26,0
51.1,66,0,0,0,9.17,0
48,78.1,0,0,0,4.03,0
54,82,0,0,0,11.18,1
55.9,71.1,0.23,0,0,11.41,1
51.1,80.1,0,0,0,2.46,0
60.1,87.1,0,0,0,9.62,1
55,73,0,0,0,6.71,1
44.1,73.9,0,0,0,6.26,0
64.9,91,0.14,0,0,4.92,1
75.9,96.1,0,0,0,5.82,0
73.9,100,0,0,0,5.59,0
69.1,96.1,0.01,0,0,7.61,1
42.1,64.9,0.1,0,0,14.99,1
33.1,57,0.19,0,0,3.8,1
34,64,0,0,0,1.79,0
32,53.1,0,0,0,5.59,0
41,64,0,0,0,3.36,0
39.9,64.9,0,0,0,2.46,0
55.9,68,0.03,0,0,3.8,1
57,84.9,0.62,0,0,4.25,1
60.1,86,0,0,0,6.93,0
54,62.1,0,0,0,6.04,0
57.9,78.1,0,0,0,5.59,0
61,80.1,0,0,0,7.83,0
60.1,75,0.15,0,0,5.59,1
53.1,80.1,0,0,0,6.26,0
57.9,82.9,0.43,0,0,10.51,1
48,78.1,0,0,0,4.03,0
52,79,0,0,0,4.7,0
36,57.9,0.42,0,0,7.61,1
46.9,70,0,0,0,7.83,1
32,57,0,0,0,1.12,0
28.9,51.1,0,0,0,2.01,1
39,60.1,0,0,0,9.17,1
50,78.1,0.09,0,0,17.45,1
41,66,0,0,0,4.25,0
34,54,0.17,0,0,5.37,1
27,54,0,0,0,4.03,0
48,75,0,0,0,10.07,0
57,78.1,0.02,0,0,10.51,1
60.1,75,0.04,0,0,3.13,1
55,77,0,0,0,3.36,0
52,82,0,0,0,6.49,0
66,82,0,0,0,1.34,0
68,82.9,0.43,0,0,7.61,1
66,88,1.18,0,0,4.47,1
71.1,96.1,0,0,0,7.83,1
69.1,95,0.82,0,0,11.41,1
69.1,87.1,0,0,0,9.4,1
70,90,0.97,0,0,10.51,1
68,91,0,0,0,5.14,0
64,89.1,0,0,0,5.37,0
72,91.9,0,0,0,6.26,0
64,88,0,0,0,9.4,0
70,89.1,0,0,0,3.58,0
64,90,0,0,0,4.47,0
53.1,70,0,0,0,12.3,0
48.9,84.9,0,0,0,1.12,0
35.1,66.9,0,0,0,2.24,0
44.1,70,0,0,0,3.13,0
52,68,0,0,0,6.93,1
43,57,0.9,0,0,6.04,1
10.9,36,0,0,0,5.82,0
23,35.1,0.19,3.5,2.01,6.71,1
19.9,55,0,0,0,5.82,0
39.9,66,0,0,0,6.04,0
37.9,57.9,0.72,0,0,9.62,1
19.9,50,0,0,0,2.91,0
39,44.1,0.73,0,0,4.92,1
43,62.1,0,0,0,7.38,1
42.1,48.9,0.01,0,0,4.7,1
44.1,82.9,0,0,0,8.5,0
55.9,73,0.12,0,0,7.61,1
59,79,0.36,0,0,10.29,1
46.9,75.9,0,0,0,3.36,0
62.1,84,0,0,0,5.82,0
63,78.1,0.28,0,0,11.86,0
45,54,0.02,0,0,5.82,0
39,69.1,0,0,0,2.68,0
46.9,79,0,0,0,2.68,0
48,80.1,0,0,0,2.91,0
69.1,87.1,0.3,0,0,6.71,0
69.1,89.1,0,0,0,6.93,0
66.9,89.1,0.31,0,0,7.61,0
73.9,95,0,0,0,4.92,0
70,96.1,0,0,0,2.24,0
64,84,0,0,0,5.82,0
72,86,0,0,0,6.71,0
64,88,0,0,0,2.24,0
66,89.1,0,0,0,3.13,0
72,90,0,0,0,4.25,0
64.9,90,0,0,0,3.58,0
71.1,95,1.68,0,0,2.68,0
72,89.1,0.19,0,0,6.49,0
70,88,0,0,0,5.59,0
61,87.1,0,0,0,1.34,0
71.1,91,0.21,0,0,6.04,0
68,78.1,0.34,0,0,6.26,0
55,75.9,0,0,0,4.25,0
60.1,84,0,0,0,1.57,0
62.1,86,0,0,0,4.7,0
60.1,75.9,0.2,0,0,9.17,0
64,77,0.03,0,0,10.96,0
57.9,66,0.34,0,0,10.74,0
53.1,68,1.23,0,0,12.08,0
39,66.9,0,0,0,3.13,0
37.9,75.9,0,0,0,1.34,0
55.9,77,0,0,0,3.8,0
59,72,0.54,0,0,5.37,0
48,69.1,0.22,0,0,1.79,0
45,77,0,0,0,7.61,0
44.1,66,0,0,0,5.82,0
31.1,64,0,0,0,0.67,0
37.9,66.9,0,0,0,4.25,0
53.1,72,0,0,0,9.4,0
48.9,73.9,0.13,0,0,2.01,0
39,57.9,0,0,0,4.25,0
33.1,54,0,0,0,2.01,0
42.1,64,0,0,0,4.7,0
44.1,66.9,0,0,0,3.58,0
37,59,0.16,0,0,6.26,0
66,77,0.04,0,0,12.75,0
64.9,73.9,0,0,0,8.05,0
63,73.9,0.01,0,0,2.91,0
31.1,53.1,0,0,0,3.36,0
37,63,0.05,0,0,11.86,0
27.1,43,0,0,0,3.36,0
22.1,35.1,0,0,0,4.03,0
28.2,46.9,0,0,1.18,2.46,0
35.1,61,0,0,0,6.26,0
26.2,55.9,0,0,0,5.37,0
46.9,72,0,0,0,9.17,0
51.1,72,1.26,0,0,10.51,0
37,44.1,0,0,0,6.93,0
19.2,41,0,0,0,5.82,0
21.2,34,0,0,0,6.04,0
35.1,60.1,1.16,0,0,8.05,0
45,71.1,0.04,0,0,8.5,0
43,46,0.19,0,0,6.26,0
31.1,66.9,0,0,0,8.28,0
28.2,48.9,0.03,0,0,6.04,0
37,57.9,0.04,0,0,3.58,0
57,79,0,0,0,14.32,0
63,80.1,0,0,0,8.95,0
57,86,0,0,0,5.37,0
39.9,43,0.09,0,0,6.71,0
55,64.9,0.06,0,0,6.26,0
42.1,69.1,0,0,0,6.93,0
55,64,0.85,0,0,8.5,0
45,64,0,0,0,9.17,0
39.9,66.9,0,0,0,9.62,0
35.1,70,0,0,0,4.7,0
61,77,0,0,0,4.92,0
50,73.9,0,0,0,4.25,0
50,75,0,0,0,6.26,0
52,82,0,0,0,5.14,0
59,87.1,0,0,0,3.8,0
64,89.1,0,0,0,6.71,0
52,82,0,0,0,3.36,0
62.1,84.9,0,0,0,3.13,0
69.1,88,0.1,0,0,2.01,0
64,84.9,0,0,0,3.8,0
72,93.9,0,0,0,3.13,0
70,87.1,1.98,0,0,6.26,0
72,93,0,0,0,7.38,0
75,91.9,0,0,0,4.92,0
37,71.1,0,0,0,1.57,0
46.9,66.9,0,0,0,5.59,0
30.2,55,0,0,0,7.83,0
28.2,62.1,0,0,0,3.58,0
57.9,72,0.06,0,0,12.97,0
43,48.9,0.56,0,0,7.83,0
23.2,50,0,0,0,8.72,0
32,43,0.25,0,0,6.04,0
15.3,27.1,0,0,1.18,4.92,0
24.3,48,0,0,1.18,5.14,0
54,73,0,0,0,12.53,0
43,60.1,0.28,0,0,9.84,0
27.1,52,0,0,0,9.4,0
30.2,46,0,0,0,6.26,0
42.1,70,0,0,0,3.8,0
27.1,60.1,0.01,0,0,4.92,0
46.9,80.1,0,0,0,3.58,0
52,81,0,0,0,13.2,0
52,75.9,0,0,0,10.74,0
43,59,0,0,0,11.86,0
53.1,55.9,0.77,0,0,11.18,0
53.1,60.1,4.51,0,0,10.96,0
57,80.1,0.29,0,0,10.74,0
61,88,0,0,0,6.04,0
72,86,0.21,0,0,5.82,0
71.1,91.9,0,0,0,4.47,0
70,93,0.15,0,0,2.91,0
71.1,91.9,0.84,0,0,3.8,0
77,97,0,0,0,9.4,0
71.1,99,0,0,0,3.8,0
71.1,102,0.56,0,0,8.95,0
73,89.1,1.2,0,0,4.25,0
73,91.9,0.48,0,0,5.37,0
75,93.9,0.24,0,0,4.92,0
64,71.1,0.22,0,0,8.5,0
62.1,82.9,0,0,0,4.25,0
51.1,79,0,0,0,3.13,0
42.1,66,0,0,0,3.8,0
39.9,63,0,0,0,3.8,0
27.1,51.1,0,0,0,2.24,0
36,70,0,0,0,4.47,0
18.1,30.2,0,0,0,7.83,0
23.2,35.1,0,0,0,10.07,0
12.2,32,0,0,0,2.91,0
43,61,0,0,0,4.92,0
10.2,34,0,0.2,5.91,5.59,0
31.1,66.9,0,0,0,6.26,0
33.1,52,0.59,0,0,8.05,0
31.1,62.1,0,0,0,13.2,0
44.1,64.9,0.21,0,0,8.5,0
37,44.1,0,0,0,8.72,0
50,72,0,0,0,3.36,0
24.3,64.9,0,0,0,11.63,0
41,75,0,0,0,7.61,0
32,52,0,0,0,4.92,0
53.1,84.9,0,0,0,10.07,0
60.1,84.9,0,0,0,12.97,0
62.1,84.9,0.16,0,0,3.58,0
68,93,0,0,0,8.05,0
68,87.1,0.08,0,0,4.7,0
70,91,0,0,0,4.47,0
72,88,0.02,0,0,4.25,0
68,91.9,0,0,0,4.92,0
70,88,0.07,0,0,4.25,0
72,93,0,0,0,3.36,0
70,89.1,0.8,0,0,2.91,0
68,88,1.83,0,0,6.71,0
68,87.1,0.86,0,0,4.47,0
70,88,0.01,0,0,6.71,0
59,82.9,0,0,0,2.68,0
71.1,93.9,0,0,0,6.04,0
72,93.9,0,0,0,7.38,0
72,91.9,0.01,0,0,2.91,0
66.9,80.1,0.15,0,0,5.37,0
66.9,88,0.26,0,0,4.47,0
72,88,0.13,0,0,5.14,0
73.9,81,0.28,0,0,11.18,0
73,75.9,0.9,0,0,14.99,0
68,82,0,0,0,3.58,0
37,57.9,0,0,0,5.59,0
37.9,61,0,0,0,3.58,0
42.1,52,1.58,0,0,8.05,0
39,64.9,0,0,0,5.14,0
54,62.1,0.82,0,0,3.8,0
57,73.9,0.03,0,0,7.38,0
30.2,57,0,0,0,2.24,0
27.1,45,0,0,0,7.83,0
36,45,0.72,0,0,5.14,0
31.1,48,0,0,0,6.71,0
30.2,37.9,1.75,7.01,3.15,15.21,0
26.2,51.1,0,0,0,2.46,0
50,68,1.61,0,0,9.84,0
45,64.9,0,0,0,3.36,0
37,59,0,0,0,8.05,0
31.1,64,0.04,0,0,7.83,0
27.1,46.9,0,0,0,3.58,0
22.1,51.1,0,0,0,2.46,0
31.1,54,0.16,0,0,8.95,0
28.9,60.1,0,0,0,3.8,0
60.1,79,0,0,0,12.75,0
48.9,66.9,0,0,0,10.51,0
34,57.9,0.45,0,0,8.05,0
33.1,45,0.25,0,0,5.37,0
37,59,0,0,0,7.83,0
37,59,0,0,0,4.25,0
39,48.9,0.1,0,0,4.7,0
32,64,0,0,0,4.7,0
32,53.1,0.05,0,0,7.16,0
42.1,63,0,0,0,9.4,0
35.1,62.1,0,0,0,6.04,0
44.1,64.9,0.01,0,0,9.17,0
34,53.1,0,0,0,5.82,0
73.9,93,0,0,0,7.38,0
73,89.1,0.54,0,0,6.71,0
73.9,93.9,0,0,0,6.26,0
69.1,90,0,0,0,5.59,0
66.9,91.9,0,0,0,4.92,0
61,91,0,0,0,4.03,0
66,90,0,0,0,7.83,0
71.1,90,0.06,0,0,3.58,0
66,86,0.45,0,0,5.14,0
64.9,79,0.32,0,0,6.49,0
66,84,0,0,0,3.8,0
45,68,0,0,0,5.37,0
48,73,0,0,0,1.57,0
60.1,84,0,0,0,7.61,0
61,86,0,0,0,3.8,0
39.9,70,0,0,0,6.71,0
44.1,66,0,0,0,2.68,0
39,68,0,0,0,1.79,0
45,69.1,0.07,0,0,7.16,0
37.9,64.9,0,0,0,2.91,0
42.1,77,0,0,0,9.17,0
31.1,53.1,0,0,0,6.49,0
27.1,54,0,0,0,5.14,0
37,60.1,0,0,0,2.01,0
48,60.1,0,0,0,5.14,0
52,68,0.01,0,0,10.29,0
39,55.9,0.34,0,0,5.37,0
44.1,73,0,0,0,4.7,0
42.1,73,0,0,0,1.79,0
35.1,66,0,0,0,5.37,0
50,77,0,0,0,7.16,0
46,69.1,0.05,0,0,8.5,0
55.9,82.9,0,0,0,4.03,0
60.1,82,0,0,0,12.75,0
55.9,87.1,0.09,0,0,9.4,0
48.9,81,0,0,0,7.16,0
68,80.1,0.3,0,0,8.05,0
64.9,73.9,0.29,0,0,5.82,0
73.9,91,0.17,0,0,8.72,0
66.9,82,0.72,0,0,4.47,0
71.1,84,0,0,0,8.05,0
57,82.9,0,0,0,4.25,0
60.1,87.1,0,0,0,6.71,0
69.1,88,0,0,0,3.36,0
71.1,95,0,0,0,6.93,0
53.1,75.9,0,0,0,2.91,0
53.1,75.9,0,0,0,7.38,0
57.9,66.9,0.01,0,0,12.75,0
64.9,88,0,0,0,1.79,0
62.1,78.1,0,0,0,3.13,0
42.1,75.9,0,0,0,1.12,0
48,79,0,0,0,2.01,0
46.9,73.9,0.76,0,0,4.92,0
36,59,0,0,0,6.93,0
28.2,48.9,0.03,0,0,1.57,0
42.1,62.1,0.03,0,0,4.7,0
30.2,53.1,0,0,0,9.62,0
26.2,55.9,0,0,1.18,5.59,0
37.9,62.1,0,0,0,4.7,0
55.9,81,0.02,0,0,13.42,0
39,57,0.07,0,0,4.92,0
26.2,54,0,0,0,4.7,0
27.1,46.9,0,0,0,4.47,0
37.9,48.9,0.21,0,0,7.83,0
32,37.9,0.92,1.42,0,7.16,0
39.9,60.1,0.01,0,0,6.04,0
27.1,55.9,0,0,0,3.8,0
43,75.9,0,0,0,10.74,0
45,75.9,0,0,0,10.96,0
69.1,88,0.02,0,0,8.72,0
73.9,93.9,0,0,0,4.92,0
69.1,93,0,0,0,4.03,0
71.1,91.9,0.03,0,0,2.68,0
73,79,2.5,0,0,20.36,0
66,87.1,0,0,0,2.91,0
69.1,84.9,0,0,0,6.26,0
53.1,71.1,0,0,0,3.58,0
39,48,0.04,0,0,8.05,0
36,43,0.88,0,0,10.29,0
43,64.9,0,0,0,3.36,0
57.9,71.1,0,0,0,10.96,0
45,59,0.01,0,0,2.91,0
46.9,54,0.01,0,0,5.14,0
44.1,61,0.01,0,0,9.62,0
32,55.9,0,0,0,3.13,0
28.9,62.1,0,0,0,2.24,0
46,69.1,0,0,0,4.47,0
27,44.1,0,0,0,4.7,0
57,73.9,0,0,0,13.2,0
28.9,39.9,0,0,0,8.72,0
27,35.1,0.29,0.98,0,4.7,1
24.1,48.9,0,0,0,5.82,0
26.1,46,0,0,0,2.91,0
26.1,45,0,0,0,8.72,0
41,66,0,0,0,16.11,0
50,73,0.01,0,0,7.16,1
41,66.9,0.2,0,0,10.29,1
39.9,70,0,0,0,5.14,1
57,81,0,0,0,9.4,1
26.1,63,0,0,0,9.4,0
50,63,0,0,0,9.17,0
43,77,0,0,0,5.14,0
51.1,79,0,0,0,6.71,0
41,61,0.18,0,0,6.26,1
34,70,0,0,0,0.22,0
46.9,79,0,0,0,7.16,0
55.9,75,0.93,0,0,7.38,1
46,66.9,0,0,0,6.49,0
43,60.1,0,0,0,14.09,0
42.1,66.9,0,0,0,6.04,0
44.1,71.1,0,0,0,4.03,0
39.9,77,0,0,0,2.24,0
57.9,82.9,0,0,0,9.84,0
63,81,0.31,0,0,8.28,1
63,81,0,0,0,8.05,0
55,82,0,0,0,6.93,0
61,91,0,0,0,7.61,0
61,91,0,0,0,7.83,0
63,90,0,0,0,6.26,0
64,89.1,0,0,0,6.71,0
64.9,77,1.53,0,0,9.62,1
60.1,90,0,0,0,10.07,0
64,90,0.03,0,0,7.16,1
66,93.9,0,0,0,8.72,0
62.1,87.1,0,0,0,2.91,0
69.1,95,0.53,0,0,4.92,1
71.1,89.1,0,0,0,4.25,1
63,84,0,0,0,3.36,0
70,89.1,0,0,0,3.36,0
61,87.1,0,0,0,3.36,0
62.1,84.9,0,0,0,3.8,0
64.9,88,0,0,0,5.59,0
66,91.9,0,0,0,1.79,0
72,88,0.13,0,0,5.59,1
75,99,0,0,0,2.24,0
71.1,93.9,0,0,0,6.49,0
70,99,0,0,0,6.04,0
75,99,0,0,0,8.95,0
73.9,99,0,0,0,12.08,0
66,91,0,0,0,5.37,0
53.1,78.1,0,0,0,8.5,0
64.9,73.9,0.31,0,0,8.28,1
64,84.9,0,0,0,6.49,0
50,79,0,0,0,6.71,0
68,82.9,0,0,0,4.25,0
46,78.1,0,0,0,2.68,0
55.9,82.9,0,0,0,5.82,0
37,61,0,0,0,4.47,0
33.1,66.9,0,0,0,1.12,0
46.9,73.9,0,0,0,4.03,1
35.1,51.1,0,0,0,6.49,0
25,50,0,0,0,3.36,0
27,57.9,0,0,0,4.7,0
55.9,81,0,0,0,7.61,0
51.1,73.9,0,0,0,3.58,0
37.9,46.9,0.97,0,0,10.29,1
39.9,48,0.01,0,0,10.07,1
32,57.9,0,0,0,2.91,0
35.1,55,0,0,0,8.95,0
55.9,73,0,0,0,9.84,0
30.9,52,0,0,0,4.25,0
33.1,51.1,0,0,0,6.71,0
33.1,42.1,0.28,0.51,0,3.58,1
27,51.1,0,0,0,9.62,0
37.9,66,0,0,0,3.8,0
30.9,64.9,0,0,0,11.18,0
32,42.1,0.29,0,0,6.93,1
37,46,0.03,0,0,6.26,1
32,63,0,0,0,4.7,0
57.9,73.9,2,0,0,15.88,1
33.1,57.9,0,0,0,7.16,0
39,59,0,0,0,6.71,0
48,75,0,0,0,12.75,0
37,57.9,0,0,0,6.04,0
46,52,0.49,0,0,7.83,1
48.9,61,0.16,0,0,9.17,1
46,55.9,0,0,0,8.72,1
37.9,80.1,0,0,0,2.01,0
55,82,0,0,0,7.38,0
45,61,0,0,0,8.05,1
51.1,82.9,0,0,0,9.62,0
64.9,77,0.07,0,0,12.53,1
51.1,64,0.01,0,0,8.05,1
60.1,78.1,0.11,0,0,7.61,1
57.9,82,0.39,0,0,10.29,1
55.9,73,0.17,0,0,7.61,1
54,86,0,0,0,7.16,0
73.9,100.9,0,0,0,8.05,0
66.9,95,0.1,0,0,5.37,1
55.9,84.9,0,0,0,3.13,0
70,88,0,0,0,10.74,1
68,89.1,0,0,0,2.91,0
73,93,0,0,0,4.92,0
55.9,89.1,0,0,0,3.58,0
60.1,84.9,0,0,0,5.59,0
68,91.9,0.56,0,0,6.71,1
66,88,0,0,0,6.93,0
61,87.1,0,0,0,2.24,0
66.9,75,1.19,0,0,5.14,1
66.9,78.1,0,0,0,4.47,0
53.1,73,0,0,0,5.59,0
66.9,82.9,0,0,0,2.91,0
51.1,73,0.25,0,0,3.36,0
54,82,0,0,0,1.57,0
55.9,78.1,0,0,0,8.72,0
54,87.1,0,0,0,1.12,0
34,59,0,0,0,6.93,0
44.1,73,0.06,0,0,8.72,1
32,45,0,0,0,8.28,1
27,45,0,0,0,6.04,0
39,59,0.96,0,0,6.93,1
33.1,57.9,0,0,0,8.72,1
36,66,0,0,0,8.72,1
25,46.9,0,0,0,1.79,0
48.9,57.9,0.02,0,0,2.46,0
48.9,61,0.19,0,0,5.59,1
21,36,0,0,0,7.16,0
37,48,0.04,0,0,4.92,1
37,64,0,0,0,5.82,0
28,46,0,0,0,5.82,0
35.1,50,0.02,0,0,5.82,1
30,36,0,0,0,6.26,0
39.9,43,0.11,0,0,3.8,1
30,54,0,0,0,2.91,0
26.1,46.9,0,0,0,5.59,0
48,73,0,0,0,10.51,0
54,75,0.04,0,0,17.45,1
23,50,0,0,0,3.8,0
34,57.9,0,0,0,10.29,0
23,46,0,0,0,2.68,0
23,35.1,0.3,3.19,2.99,6.93,1
39.9,73.9,0,0,0,14.32,0
42.1,66,0,0,0,5.82,0
46,69.1,0.43,0,0,5.37,0
50,77,0,0,0,17.45,1
43,70,0,0,0,4.7,0
48.9,66.9,0.06,0,0,9.62,1
64.9,87.1,0,0,0,6.04,0
69.1,89.1,0,0,0,4.92,1
68,80.1,0.05,0,0,7.38,1
70,91,0,0,0,4.7,0
72,91.9,0,0,0,5.82,0
64.9,97,0.04,0,0,5.14,1
72,97,0,0,0,7.61,0
66,88,0,0,0,5.59,0
68,91.9,0,0,0,5.14,0
70,95,0.03,0,0,2.68,1
71.1,88,0,0,0,4.03,0
62.1,82,0,0,0,4.47,0
46,57.9,0,0,0,6.04,0
34,61,0,0,0,2.01,0
35.1,72,0,0,0,2.91,0
37.9,64.9,0,0,0,2.91,0
36,48,0.41,0,0,4.92,1
28,44.1,0,0,0,2.01,0
21.9,43,0,0,0,2.24,1
18,32,0,0,0,8.5,0
17.1,36,0,0,0,5.14,0
19,41,0,0,0,5.59,0
30,51.1,0,0,0,6.71,0
26.1,51.1,0,0,0,6.71,0
50,69.1,0.16,0,0,8.05,1
35.1,64,0,0,0,1.79,0
37.9,69.1,0.09,0,0,11.63,1
41,66,0,0,0,4.7,0
48,72,0,0,0,1.34,0
55.9,68,0,0,0,7.16,1
54,63,0.08,0,0,3.8,1
70,91,0,0,0,4.7,0
71.1,91,0,0,0,3.36,0
69.1,98.1,0,0,0,4.47,0
71.1,95,0.01,0,0,7.16,1
66.9,90,0,0,0,2.91,0
41,57.9,0,0,0,7.83,0
50,66,0.07,0,0,7.61,1
53.1,72,0.03,0,0,9.62,1
48.9,82,0,0,0,7.38,0
53.1,84,0,0,0,14.54,0
54,78.1,0.35,0,0,10.74,1
44.1,66,0,0,0,4.47,0
48.9,64,0,0,0,8.72,1
66,91.9,0,0,0,10.51,0
60.1,73,0.98,0,0,5.14,0
62.1,82,0,0,0,7.38,1
66.9,90,0.08,0,0,12.08,1
69.1,84.9,0,0,0,6.04,0
45,71.1,0,0,0,9.62,0
66.9,82.9,0.13,0,0,5.37,1
64,86,0,0,0,2.68,0
68,88,0,0,0,7.16,1
63,84.9,0,0,0,4.03,0
66,93.9,0,0,0,6.71,0
73,99,0.06,0,0,9.17,1
68,93,0.06,0,0,3.13,1
70,86,0.25,0,0,3.8,1
69.1,84.9,0,0,0,3.36,1
59,81,0,0,0,5.82,0
59,72,0,0,0,5.82,0
57,82,0,0,0,5.59,0
71.1,90,0,0,0,3.36,1
45,55,0.07,0,0,3.58,1
46,78.1,0,0,0,4.47,0
60.1,81,0,0,0,8.95,1
44.1,64,0.06,0,0,5.82,1
37.9,64,0,0,0,2.91,0
33.1,51.1,0.01,0,0,3.13,1
21.9,46,0,0,0,2.24,0
28.9,51.1,0.03,0,0,7.61,1
37,48,0.12,0,0,5.59,1
43,84,0,0,0,2.46,0
57.9,88,0,0,0,6.71,0
42.1,70,0,0,0,2.01,0
41,75.9,0,0,0,3.8,0
46,78.1,0,0,0,4.03,0
55.9,78.1,0,0,0,7.61,0
57,77,0.11,0,0,5.59,1
62.1,81,0.29,0,0,14.32,1
64,82.9,0,0,0,4.7,0
73.9,91,0,0,0,7.38,0
75,96.1,0,0,0,7.16,0
69.1,78.1,0.18,0,0,5.59,1
75,93,0,0,0,12.53,0
77,93.9,0,0,0,6.26,0
78.1,98.1,0.41,0,0,6.71,1
73.9,95,0,0,0,5.14,0
73,91,0.07,0,0,4.7,1
73,99,0,0,0,5.59,0
59,87.1,0,0,0,5.14,0
66,93.9,0,0,0,6.04,0
59,93.9,0,0,0,3.8,0
64,81,0.05,0,0,6.71,1
55,78.1,0.01,0,0,5.82,1
44.1,70,0,0,0,4.47,0
48,79,0,0,0,2.01,0
48,84,0,0,0,1.12,0
28.9,43,0,0,0,4.47,0
28,42.1,0,0,0,2.24,0
24.1,57.9,0,0,0,6.04,0
73.9,86,0.39,0,0,4.92,0
77,93.9,0,0,0,9.84,0
73.9,91,0,0,0,2.24,0
71.1,95,0,0,0,3.36,0
57.9,84,0,0,0,2.46,0
68,96.1,0,0,0,6.71,0
71.1,93.9,0,0,0,6.71,0
72,91,0,0,0,6.04,0
66,91,0,0,0,3.8,0
64.9,75.9,0.02,0,0,5.59,0
59,72,0.02,0,0,10.29,0
63,70,6.45,0,0,16.11,0
43,68,0,0,0,3.36,0
62.1,88,0,0,0,2.91,0
42.1,64,0,0,0,8.28,0
54,73.9,0,0,0,4.25,0
52,64,0,0,0,2.68,0
39,75.9,0,0,0,0.89,0
52,73.9,0,0,0,2.01,0
27.1,55.9,0,0,0,0.67,0
46,68,0,0,0,6.49,0
33.1,57.9,0,0,0,3.58,0
19.2,32,0.01,0,0,4.7,0
43,59,0.02,0,0,3.13,0
46.9,55.9,0.31,0,0,5.37,0
41,64,0,0,0,5.82,0
41,63,0,0,0,6.04,0
37,61,0,0,0,2.24,0
54,73.9,0.09,0,0,5.82,0
41,73,0,0,0,12.3,0
24.3,50,0,0,0,6.04,0
37,71.1,0,0,0,9.62,0
50,75.9,0.4,0,0,9.17,0
34,66.9,0,0,0,3.13,0
54,80.1,0,0,0,8.05,0
73,91,0.04,0,0,13.65,0
73,91,0.05,0,0,5.14,0
70,82,0.01,0,0,8.5,0
63,84.9,0,0,0,6.26,0
63,88,0,0,0,4.03,0
62.1,84.9,0,0,0,3.8,0
63,84.9,0,0,0,5.59,0
63,87.1,0,0,0,5.59,0
69.1,84.9,0,0,0,7.61,0
60.1,72,0,0,0,6.04,0
55.9,64,0,0,0,8.28,0
45,50,0.27,0,0,4.03,0
30.2,64,0,0,0,2.91,0
37,73,0,0,0,7.61,0
51.1,70,0,0,0,3.8,0
39,62.1,0,0,0,8.05,0
30.2,53.1,0,0,0,6.26,0
30.2,48,0.03,0.31,0,4.92,0
24.3,39.9,0,0,0,10.51,0
60.1,80.1,0.06,0,0,7.61,0
55,73,0,0,0,4.92,0
48.9,69.1,0,0,0,6.04,0
53.1,81,0,0,0,4.47,0
61,84.9,0,0,0,9.62,0
55,69.1,0,0,0,3.58,0
55.9,78.1,1.48,0,0,15.88,0
45,69.1,0,0,0,5.82,0
43,64,0.01,0,0,1.79,0
66,89.1,0,0,0,8.95,0
60.1,75.9,0.82,0,0,11.41,0
59,81,0,0,0,7.83,0
66.9,84.9,1.54,0,0,6.04,0
61,89.1,0,0,0,6.04,0
70,91,0,0,0,3.36,0
66,84.9,0.2,0,0,6.71,0
75.9,91,0.07,0,0,2.91,0
73.9,95,0.21,0,0,5.82,0
61,82.9,0,0,0,6.26,0
59,87.1,0,0,0,3.58,0
54,77,0,0,0,7.83,0
46.9,75.9,0,0,0,4.92,0
50,77,0,0,0,6.26,0
59,86,0.15,0,0,6.26,0
64.9,77,0,0,0,8.28,0
63,71.1,0,0,0,7.38,0
43,77,0,0,0,2.01,0
46,73,0,0,0,4.25,0
29.1,50,0,0,0,2.68,0
26.2,57,0,0,0,1.57,0
33.1,62.1,0,0,0,2.91,0
29.1,64.9,0,0,0,2.24,0
35.1,69.1,0,0,0,1.12,0
33.1,61,0,0,0,2.46,0
41,57,0.24,0,0,4.7,0
30.2,57,0,0,0,7.38,0
48,55.9,0.42,0,0,2.46,0
36,53.1,0,0,0,4.47,0
48,71.1,0,0,0,12.08,0
15.3,42.1,0,0,0,2.01,0
13.1,28.2,0,0,0,6.49,0
29.1,55.9,0,0,0,9.62,0
17.2,39,0,0,0,3.8,0
23.2,37.9,0.49,5.91,0,5.82,0
19.2,48.9,0,0,3.94,3.58,0
25.2,57,0,0,0,4.25,0
25.2,39.9,0.04,0,0,6.93,0
24.3,57,0.16,0,0,7.83,0
18.1,42.1,0,0,0,5.14,0
33.1,55.9,0.61,0,0,6.49,0
42.1,64.9,0.08,0,0,9.84,0
39,61,0.02,0,0,5.14,0
57,78.1,0,0,0,11.18,0
39.9,63,0.09,0,0,4.25,0
35.1,57,0,0,0,8.72,0
35.1,55.9,0,0,0,6.93,0
35.1,54,0,0,0,6.71,0
37.9,55.9,0,0,0,3.13,0
39,68,0,0,0,5.82,0
36,57,1.05,0,0,8.72,0
33.1,54,0.3,0,0,9.84,0
55.9,80.1,0,0,0,13.87,0
51.1,71.1,0.03,0,0,13.2,0
39.9,64,0,0,0,5.82,0
48,77,0,0,0,13.87,0
59,81,0,0,0,13.87,0
33.1,62.1,0,0,0,9.4,0
42.1,82,0,0,0,9.62,0
52,66,0.01,0,0,11.18,0
57,84.9,0,0,0,11.86,0
50,79,0,0,0,4.7,0
71.1,82,0.23,0,0,8.28,0
69.1,86,0,0,0,8.05,0
69.1,87.1,0,0,0,9.4,0
69.1,75.9,0.28,0,0,6.26,0
69.1,91.9,0,0,0,5.59,0
64,84.9,0,0,0,5.59,0
64.9,89.1,0,0,0,4.47,0
66.9,91,0.2,0,0,4.47,0
66.9,84.9,0,0,0,6.04,0
69.1,86,0,0,0,5.82,0
64.9,90,0,0,0,4.47,0
73,96.1,0,0,0,5.59,0
71.1,93.9,0.02,0,0,4.92,0
75,95,0,0,0,3.13,0
72,93,0,0,0,5.37,0
59,91,0,0,0,2.46,0
70,88,0.02,0,0,6.26,0
73,95,0,0,0,6.93,0
71.1,89.1,0,0,0,3.8,0
64.9,86,0.12,0,0,2.46,0
68,90,0,0,0,2.24,0
60.1,80.1,0,0,0,5.14,0
73,95,0,0,0,6.49,0
71.1,91,0,0,0,3.13,0
71.1,84.9,0,0,0,6.93,0
64.9,88,0,0,0,1.79,0
64,73.9,0,0,0,5.82,0
66,87.1,0.12,0,0,5.37,0
64.9,79,0.02,0,0,4.92,0
61,82.9,0,0,0,3.8,0
66.9,80.1,0.07,0,0,6.49,0
59,80.1,0,0,0,5.59,0
42.1,66,0,0,0,4.7,0
36,55,0,0,0,1.34,0
35.1,64.9,0,0,0,1.12,0
34,52,0,0,0,6.26,0
35.1,48,3.17,0,0,5.14,0
37.9,64,0,0,0,5.82,0
33.1,50,0,0,0,5.59,0
25.2,51.1,0,0,0,3.13,0
41,53.1,0,0,0,4.03,0
24.3,45,0,0,1.18,1.34,0
36,57,0.7,0,0,5.14,0
34,53.1,0,0,0,2.01,0
27.1,53.1,0,0,0,1.12,0
28.2,57,0.01,0,0,5.14,0
46.9,66.9,0.13,0,0,8.05,0
39,64.9,0,0,0,2.68,0
39.9,51.1,0,0,0,6.93,0
21.2,43,0,0,0,2.01,0
17.2,39,0,0,0,3.8,0
35.1,64.9,0.73,0,0,11.41,0
37,50,0,0,0,5.82,0
18.1,39,0,0,0,4.92,0
37,68,0,0,0,2.68,0
37.9,75.9,0,0,0,1.57,0
45,75,0,0,0,9.17,0
28.9,64,0,0,0,4.7,0
32,37,0.39,0,0,7.61,0
35.1,59,0.14,0,0,4.25,0
41,64.9,0.05,0,0,8.72,0
41,48,0.01,0,0,5.82,0
32,66,0,0,0,3.58,0
48,66.9,0.01,0,0,4.47,1
48,57.9,0,0,0,3.36,0
41,61,0.07,0,0,3.36,1
30,34,0.44,0,0,7.61,1
26.1,45,0,0,0,2.68,0
36,59,0.8,0,0,10.96,1
24.1,42.1,0,0,0,6.26,0
30.9,48,0,0,0,4.7,0
30,62.1,0.02,0,0,1.57,1
39,62.1,0,0,0,3.13,0
30,50,0,0,0,4.7,0
46.9,66,0.86,0,0,17.67,1
30.9,51.1,0,0,0,8.28,0
17.1,37.9,0,0,4.02,2.24,1
41,66.9,0,0,0,4.47,0
55.9,89.1,0,0,0,4.47,0
54,84,0,0,0,2.68,0
70,89.1,0,0,0,6.04,0
61,93,0,0,0,4.92,0
69.1,102,0,0,0,4.25,0
72,95,0.4,0,0,3.58,1
73.9,91,0,0,0,4.25,1
72,93,0.38,0,0,7.16,1
66.9,80.1,0.05,0,0,2.24,1
68,84,2.25,0,0,6.26,1
69.1,75.9,0.7,0,0,8.72,1
30,53.1,0,0,0,2.46,0
34,62.1,0,0,0,2.24,0
34,61,0,0,0,1.79,0
54,77,0,0,0,7.61,1
26.1,52,0,0,0,2.24,0
26.1,48.9,0,0,0,2.01,0
21,35.1,0,0,0,7.83,0
16,37.9,0,0,0,2.68,0
25,36,0,0,0,11.18,1
32,45,0,0,0,7.83,0
32,44.1,0.15,0.39,0,2.46,1
24.1,46.9,0,0,0.98,1.57,0
23,54,0,0,0,4.92,0
24.1,44.1,0,0,0,6.71,0
19,41,0,0,0,1.12,0
25,53.1,0,0,0,1.34,0
30,46,0.03,0,0,7.16,1
28,51.1,0,0,0,3.13,0
39.9,51.1,0.31,0,0,3.36,0
39.9,64.9,0,0,0,3.36,0
32,46,0,0,0,6.26,0
41,66,0.16,0,0,9.84,0
43,73,0,0,0,8.5,0
57,78.1,0.53,0,0,5.82,0
46.9,73,0,0,0,7.61,0
48,66,0.05,0,0,4.47,0
37.9,66.9,0,0,0,3.58,0
45,57,0.34,0,0,3.58,0
51.1,73,0.99,0,0,4.47,0
51.1,61,0.58,0,0,4.47,0
55.9,82,0,0,0,7.38,0
57.9,80.1,0,0,0,3.58,0
55.9,72,0,0,0,7.16,0
69.1,91,0,0,0,6.49,0
69.1,90,1.38,0,0,4.25,0
57,84,0,0,0,6.49,0
61,68,0.02,0,0,5.37,0
59,88,0,0,0,5.59,0
62.1,86,0,0,0,6.71,0
71.1,96.1,0,0,0,3.36,0
73.9,96.1,0.51,0,0,3.8,0
75.9,98.1,0,0,0,8.28,0
72,87.1,0.24,0,0,6.71,0
69.1,87.1,0.06,0,0,8.5,0
72,91,0,0,0,5.37,0
66,86,0,0,0,3.58,0
73.9,88,0,0,0,4.92,0
68,90,0,0,0,3.36,0
73,93.9,0,0,0,2.91,0
73,97,0,0,0,3.13,0
64.9,87.1,0,0,0,3.13,0
69.1,91.9,0,0,0,3.13,0
69.1,95,0,0,0,4.25,0
72,89.1,0,0,0,2.91,0
69.1,86,0,0,0,6.71,0
71.1,89.1,0.21,0,0,6.04,0
70,84,0,0,0,2.24,0
52,81,0,0,0,1.57,0
55.9,84,0,0,0,3.8,0
66,79,0,0,0,9.4,0
73.9,82,0.9,0,0,5.59,0
66,82.9,0.06,0,0,4.7,0
55,60.1,2.07,0,0,14.54,0
52,81,0,0,0,0.22,0
60.1,79,0,0,0,9.4,0
45,68,0,0,0,2.68,0
39.9,66,0,0,0,3.13,0
50,59,0,0,0,9.17,0
43,71.1,0,0,0,0.89,0
45,71.1,0,0,0,1.79,0
52,64,0.04,0,0,7.61,0
51.1,59,0.89,0,0,2.01,0
26.2,48,0,0,0,6.71,0
36,57,0,0,0,2.01,0
51.1,64.9,0.66,0,0,4.92,0
51.1,68,0.15,0,0,8.95,0
23.2,34,0,0,0,6.26,0
21.2,45,0,0,0,3.58,0
27.1,45,0,0,0,3.58,0
35.1,51.1,0.37,0,0,5.59,0
25.2,32,0.95,1.18,0,12.3,0
24.3,32,0.01,0,1.18,7.83,0
31.1,54,0,0,0,5.82,0
37.9,70,0,0,0,11.18,0
42.1,63,0.27,0,0,6.26,0
29.1,44.1,0,0,0,6.49,0
25.2,32,0,0,0,4.47,0
32,51.1,0,0,0,3.58,0
45,57,0.87,0,0,6.26,0
31.1,50,0,0,0,5.59,0
35.1,52,0.08,0,0,5.37,0
34,55,0,0,0,4.47,0
57.9,80.1,1.87,0,0,3.8,0
55,78.1,0,0,0,3.36,0
48,72,0,0,0,3.13,0
37,57,0,0,0,5.37,0
48,77,0,0,0,15.43,0
54,59,0.73,0,0,4.7,0
37.9,52,0,0,0,10.29,0
29.1,60.1,0,0,0,5.14,0
62.1,72,1.02,0,0,7.38,0
66,87.1,0.09,0,0,8.72,0
63,82.9,0,0,0,5.37,0
59,78.1,0,0,0,4.47,0
57,64,0.1,0,0,5.82,0
55.9,71.1,0,0,0,6.26,0
53.1,70,0.22,0,0,4.03,0
66.9,86,0,0,0,4.92,0
70,91,0.07,0,0,4.25,0
59,84.9,0,0,0,3.36,0
70,93,0,0,0,6.93,0
73,91.9,0,0,0,5.59,0
66.9,82.9,0.1,0,0,7.61,0
59,82,0,0,0,9.62,0
72,91.9,0.12,0,0,6.93,0
72,89.1,0,0,0,5.82,0
69.1,84.9,0.02,0,0,4.25,0
73,90,0,0,0,2.91,0
71.1,95,1.58,0,0,6.49,0
73.9,95,0,0,0,5.59,0
24.1,48,0,0,0,4.47,0
32,57,0,0,0,4.25,0
30.9,62.1,0,0,0,4.92,0
44.1,75.9,0,0,0,13.2,0
37,59,0.02,0,0,4.7,1
44.1,81,0,0,0,8.28,0
28,57.9,0,0,0,6.26,0
37,70,0,0,0,2.91,0
30.9,48.9,0.02,0,0,2.46,1
39.9,48,0.03,0,0,3.58,1
46.9,71.1,0.5,0,0,13.2,1
64,84,0,0,0,11.63,0
66,84,0,0,0,10.07,0
52,75.9,0,0,0,5.14,0
55.9,82.9,0,0,0,7.16,0
63,84.9,0,0,0,11.41,0
42.1,68,0,0,0,3.13,0
44.1,72,0.3,0,0,7.61,1
53.1,73.9,0,0,0,3.36,1
57,79,0,0,0,3.36,1
63,80.1,0.02,0,0,5.82,1
53.1,78.1,0,0,0,2.91,0
55,84,0,0,0,2.01,0
64.9,93,0,0,0,3.13,0
64.9,82,1.64,0,0,6.93,0
64.9,86,0,0,0,4.03,1
64,84,0,0,0,4.92,0
68,95,0.24,0,0,6.49,1
73,93,0.03,0,0,5.59,1
73,89.1,0.09,0,0,5.14,1
73.9,96.1,0,0,0,6.26,0
78.1,100,0,0,0,6.49,0
75.9,97,0,0,0,3.13,1
70,96.1,0,0,0,4.92,0
75,100,0,0,0,2.46,1
75,104,0,0,0,3.8,0
75,100,2.1,0,0,4.7,1
73,89.1,4.31,0,0,5.37,0
75,96.1,0,0,0,7.38,0
73,93.9,0,0,0,5.14,0
64,84.9,0,0,0,5.14,0
71.1,91.9,1,0,0,8.95,1
72,78.1,0.54,0,0,13.65,1
72,86,0.12,0,0,8.28,1
55,60.1,0.09,0,0,8.28,1
55,61,0.23,0,0,8.05,1
57,70,0,0,0,7.38,0
60.1,75,0,0,0,2.91,0
64,78.1,0,0,0,1.34,0
70,80.1,0,0,0,5.82,1
73,87.1,0,0,0,7.61,1
66.9,82.9,0.78,0,0,4.25,1
52,77,0,0,0,6.26,0
63,78.1,0.09,0,0,4.25,1
53.1,73.9,0,0,0,9.62,1
55,84.9,0,0,0,8.72,0
45,71.1,0,0,0,1.12,0
34,64,0,0,0,0.67,0
39,71.1,0,0,0,0.22,0
39.9,66.9,0,0,0,10.51,0
55.9,75.9,0,0,0,12.97,0
46,73.9,0,0,0,6.49,0
51.1,75,0,0,0,8.95,0
35.1,57,0,0,0,4.92,0
33.1,51.1,0,0,0,2.46,0
30.9,48.9,0.09,0,0,3.36,1
27,48.9,0,0,0,2.01,0
36,62.1,0,0,0,9.4,0
19,44.1,0,0,0,6.04,0
39,72,0,0,0,6.04,0
43,48.9,0.28,0,0,3.58,1
30,55,0,0,0,11.86,0
23,46,0,0,0,5.14,0
30,44.1,0,0,0,3.58,0
43,64,0,0,0,4.25,0
39.9,69.1,0,0,0,6.71,1
32,50,0.15,0,0,5.59,1
28.9,50,0,0,0,3.58,0
28,57.9,0,0,0,7.16,0
45,73.9,0.2,0,0,8.5,1
52,80.1,0.01,0,0,9.62,1
39.9,61,0.28,0,0,5.14,1
39,57,0,0,0,5.59,0
57.9,80.1,0.19,0,0,4.7,1
57.9,79,0.1,0,0,3.8,1
48.9,69.1,0,0,0,6.26,1
42.1,77,0,0,0,5.59,0
46.9,63,0.17,0,0,7.61,1
37,68,0,0,0,3.13,0
45,73.9,0,0,0,6.49,0
36,69.1,0,0,0,2.01,0
57.9,81,0,0,0,12.3,0
55.9,77,0.38,0,0,9.62,1
61,80.1,0,0,0,7.16,0
64,91,0,0,0,4.92,0
64,84,1.58,0,0,4.47,1
61,73,0.01,0,0,7.16,1
62.1,88,0,0,0,3.58,0
52,81,0,0,0,5.37,0
57,75.9,0,0,0,6.93,1
63,84,0.28,0,0,6.04,1
59,80.1,0,0,0,8.05,0
66.9,91.9,0,0,0,5.14,0
71.1,95,0.1,0,0,6.04,1
35.1,50,0,0,0,5.37,1
26.1,48.9,0,0,0,4.7,0
27,52,0,0,0,5.14,0
32,42.1,0.36,0,0,4.92,1
37,46,0.01,0,0,10.74,1
48,69.1,0.65,0,0,9.84,1
35.1,55,0,0,0,1.12,0
28,55.9,0,0,0,4.7,0
48,68,0.87,0,0,8.5,1
39,60.1,0,0,0,4.25,0
62.1,87.1,0,0,0,10.29,0
69.1,84.9,0.14,0,0,8.5,0
73,84.9,0,0,0,6.93,0
70,89.1,0,0,0,7.38,0
75,91.9,0,0,0,9.84,0
72,91,0,0,0,6.71,0
66.9,75,0.6,0,0,1.57,0
55,82.9,0,0,0,1.34,0
68,90,0,0,0,5.82,0
59,82,0,0,0,1.12,0
64,87.1,0,0,0,3.36,0
68,91,0,0,0,5.14,0
70,90,0,0,0,6.04,0
57.9,75.9,0,0,0,8.5,0
51.1,82,0,0,0,1.12,0
63,84.9,0,0,0,6.71,0
53.1,61,0.14,0,0,5.82,0
61,69.1,0.01,0,0,3.58,0
54,71.1,0,0,0,5.14,0
37,52,0,0,0,8.5,0
41,62.1,0,0,0,3.8,0
43,61,0.01,0,0,3.8,0
33.1,57.9,0,0,0,2.91,0
53.1,64,0,0,0,3.36,0
42.1,69.1,0.11,0,0,10.74,0
34,46,0.17,0,0,2.68,0
28.2,54,0,0,0,4.47,0
46.9,68,1.95,0,0,8.05,0
23.2,39.9,0,0,0,2.68,0
32,51.1,0,0,0,3.8,0
29.1,51.1,0,0,0,2.46,0
9.1,25.2,0,0,0,7.61,0
15.3,43,0,0,0,2.91,0
25.2,54,0,0,0,2.46,0
37.9,54,0.3,0,0,2.91,0
32,44.1,0.07,0,0,3.8,0
11.1,27.1,0,0,0,6.26,0
18.1,39.9,0,0,0,15.21,0
39.9,64,0.18,0,0,9.62,0
29.1,55,0,0,0,3.13,0
30.2,36,0.39,0.39,1.18,6.71,0
32,45,0.27,0,0,6.49,0
35.1,64.9,0,0,0,4.03,0
34,71.1,0,0,0,8.28,0
30.2,42.1,0.55,0,0,13.42,0
27.1,68,0,0,0,4.25,0
29.1,45,0,0,0,7.61,0
24.3,60.1,0,0,0,9.17,0
30.2,37,0.09,0,0,8.05,0
35.1,46.9,0.04,0,0,5.37,0
39,66,0,0,0,5.37,0
36,57,0.14,0,0,4.92,0
63,75.9,0.03,0,0,10.74,0
48.9,68,0,0,0,12.3,0
42.1,73.9,0,0,0,3.58,0
39.9,71.1,0,0,0,3.8,0
55,73,0,0,0,5.82,0
55.9,84,0,0,0,3.8,0
55,89.1,0,0,0,6.26,0
64,86,0,0,0,8.95,0
57.9,90,0,0,0,2.68,0
66.9,91.9,0,0,0,5.82,0
64,88,0,0,0,4.7,0
53.1,79,0,0,0,3.36,0
64,90,0,0,0,3.8,0
64.9,75.9,0.08,0,0,5.82,0
57,89.1,0.05,0,0,4.03,0
68,82.9,0,0,0,5.82,0
64.9,87.1,0,0,0,8.5,0
68,93.9,0,0,0,3.36,0
66.9,88,0.42,0,0,4.25,0
60.1,86,0,0,0,2.91,0
68,91,0,0,0,3.58,0
68,84,0,0,0,5.82,0
73,93,0,0,0,6.71,0
70,84.9,0.88,0,0,4.92,0
73.9,93,0,0,0,7.83,0
73.9,90,0,0,0,6.93,0
61,82.9,0,0,0,4.92,0
64,80.1,0,0,0,3.13,0
66,82,0,0,0,4.25,0
72,84.9,0,0,0,3.8,0
63,81,0,0,0,4.25,0
64,70,0.08,0,0,3.36,0
68,84.9,0,0,0,2.24,0
70,90,0,0,0,3.36,0
70,84,0.31,0,0,6.71,0
61,86,0,0,0,2.68,0
70,88,0.61,0,0,3.36,0
71.1,91,0,0,0,2.24,0
72,89.1,0,0,0,4.92,0
70,78.1,0,0,0,7.16,0
68,73,1.04,0,0,8.28,0
66.9,88,0.09,0,0,5.59,0
69.1,80.1,0.02,0,0,5.37,0
57.9,81,0,0,0,5.82,0
63,87.1,0.12,0,0,6.26,0
55,64,3.18,0,0,9.62,0
63,68,0.03,0,0,7.38,0
54,79,0,0,0,1.34,0
51.1,79,0,0,0,2.68,0
70,79,0.42,0,0,10.29,0
53.1,72,0,0,0,4.47,0
48.9,73.9,0,0,0,4.25,0
53.1,75,0,0,0,4.25,0
41,71.1,0,0,0,4.25,0
48,66.9,0,0,0,6.04,0
39,71.1,0,0,0,2.68,0
39.9,60.1,0,0,0,0.67,0
45,72,0,0,0,3.8,0
25.2,46,0,0,0,1.79,0
22.1,54,0,0,0,1.79,0
35.1,50,1.69,0,0,6.71,0
27.1,54,0,0,0,5.82,0
35.1,53.1,0,0,0,12.97,0
35.1,45,0.5,0,0,3.58,0
36,52,0,0,0,2.01,0
35.1,64,0.03,0,0,5.82,0
46,51.1,0.16,0,0,3.8,0
16.2,39,0,0,0,6.26,0
22.1,45,0,0,0,8.28,0
30.2,53.1,0,0,0,3.58,0
31.1,63,0,0,0,5.14,0
30.2,44.1,0.01,0,0,5.14,0
25.2,46,0,0,0,2.91,0
25.2,54,0,0,0,6.04,0
19.2,27.1,0.22,0.31,0,6.26,0
19.2,35.1,0.39,0.71,1.18,4.7,0
19.2,39.9,0.06,0.39,0,6.04,0
7.2,26.2,0,0,0,5.59,0
35.1,71.1,0,0,0,4.92,0
50,75,0,0,0,6.93,0
42.1,53.1,0.02,0,0,4.92,0
45,62.1,0.3,0,0,4.7,0
39,60.1,0,0,0,4.7,0
55,87.1,0,0,0,3.13,0
70,105.1,0,0,0,4.7,0
75.9,105.1,0,0,0,8.28,0
72,88,0,0,0,3.8,1
75.9,99,0,0,0,9.62,1
73.9,95,0.14,0,0,6.71,1
73,96.1,0.01,0,0,6.26,1
71.1,89.1,0,0,0,5.59,0
64.9,91.9,0,0,0,4.03,1
66.9,86,0,0,0,4.92,0
63,72,0.41,0,0,3.58,1
71.1,84.9,0,0,0,2.91,0
69.1,90,0.31,0,0,6.04,0
55,80.1,0,0,0,3.58,0
63,84.9,0,0,0,8.95,1
51.1,72,0,0,0,3.13,0
54,82.9,0,0,0,3.8,0
59,84.9,0,0,0,1.79,0
61,66.9,0.14,0,0,4.7,1
64,79,0,0,0,2.91,1
51.1,82,0,0,0,2.24,0
51.1,64,0.03,0,0,9.84,0
42.1,55,0,0,0,5.59,1
37,55,0,0,0,4.7,0
33.1,46.9,0,0,0,5.59,0
32,55,0,0,0,5.59,0
28.9,53.1,0,0,0,2.24,0
48.9,71.1,0,0,0,5.14,0
44.1,64.9,0,0,0,5.14,1
37,51.1,0,0,0,6.71,0
39.9,62.1,0.42,0,0,10.07,1
34,50,0,0,0,7.38,0
43,50,0.21,0,0,6.49,1
28.9,52,0,0,0,2.24,0
41,51.1,0.22,0,0,3.13,1
48.9,71.1,0,0,0,2.01,0
42.1,50,0.18,0,0,2.46,1
26.1,54,0,0,0,3.58,0
35.1,63,0,0,0,6.49,0
19.9,28,0.32,0.2,0,3.8,1
32,51.1,0.01,0,0,6.26,1
33.1,63,0.09,0,0,13.2,1
26.1,39.9,0,0,0,9.4,0
19,45,0,0,0,6.04,1
30,62.1,0,0,0,3.13,0
34,57.9,0,0,0,6.93,0
39,61,0,0,0,10.29,1
60.1,84.9,0,0,0,11.41,0
57.9,75.9,0,0,0,3.13,0
48.9,77,0,0,0,9.84,0
62.1,84,0,0,0,6.49,0
64,78.1,0.54,0,0,6.49,0
66.9,86,0.04,0,0,3.58,0
66.9,89.1,0,0,0,9.62,0
68,86,0.1,0,0,5.82,0
72,90,0,0,0,5.14,0
72,84,0.2,0,0,6.71,0
73.9,93,0,0,0,2.68,0
73,93,0,0,0,2.46,0
62.1,87.1,0,0,0,2.24,0
70,82.9,0.51,0,0,4.92,0
73.9,91.9,0,0,0,9.62,0
62.1,72,0.19,0,0,3.8,0
54,73,0,0,0,3.8,0
39,68,0,0,0,0.45,0
39.9,69.1,0,0,0,2.46,0
35.1,55,0,0,0,6.49,0
39.9,63,0,0,0,7.61,1
57,86,0,0,0,3.8,0
59,77,0.01,0,0,9.4,1
60.1,82.9,0.02,0,0,6.04,1
32,48,0.12,0,0,8.05,1
27,55.9,0,0,0,2.91,0
64.9,84.9,0,0,0,9.62,0
63,82.9,0,0,0,2.91,0
61,87.1,0,0,0,4.03,0
55.9,69.1,0.01,0,0,5.59,1
66,82.9,0.13,0,0,7.38,1
73,96.1,0,0,0,8.05,0
62.1,82.9,0.02,0,0,2.91,1
62.1,84.9,0,0,0,3.8,0
64.9,91.9,0,0,0,9.62,0
71.1,93.9,0,0,0,6.49,1
71.1,93.9,0,0,0,7.38,0
73,84.9,0,0,0,7.16,0
66.9,91.9,0,0,0,5.14,0
66.9,90,0,0,0,6.49,0
73.9,99,0,0,0,7.38,0
71.1,90,0,0,0,5.82,0
71.1,93.9,0,0,0,5.82,0
73,90,0,0,0,5.59,0
69.1,87.1,0,0,0,8.5,0
66,96.1,0,0,0,3.36,0
69.1,95,0,0,0,5.82,0
69.1,93,0,0,0,5.14,0
53.1,75,0,0,0,8.05,0
51.1,75.9,0,0,0,7.61,0
66,81,0,0,0,5.82,1
48,80.1,0,0,0,6.71,0
64.9,93,0,0,0,1.79,0
43,73.9,0,0,0,4.7,0
43,75,0,0,0,2.01,0
48,80.1,0,0,0,3.13,0
51.1,79,0,0,0,2.01,0
54,84,0,0,0,3.36,0
50,80.1,0,0,0,4.7,0
70,78.1,1.72,0,0,6.93,1
53.1,78.1,0,0,0,4.47,0
37,66,0.04,0,0,7.16,1
28,60.1,0,0,0,4.25,0
45,66,0,0,0,3.36,0
44.1,64,0.06,0,0,5.82,1
36,53.1,0,0,0,4.92,1
26.1,45,0,0,0,7.61,0
48.9,72,0,0,0,5.14,0
46,66.9,0,0,0,3.58,0
28,57.9,0,0,0,2.91,0
35.1,43,0.91,0,0,6.93,1
55,71.1,0.13,0,0,10.74,1
46.9,57.9,1.92,0,0,5.59,1
36,57,0,0,0,3.58,1
17.1,45,0,0,0,6.04,0
25,55,0,0,0,8.5,0
18,33.1,0,0,0.98,6.93,0
37,54,0,0,0,3.58,1
30.9,57,0.13,0,0,9.84,1
34,55.9,0.92,0,0,4.92,1
39,73.9,0,0,0,10.29,0
37.9,66.9,0,0,0,4.92,0
28,63,0,0,0,5.82,0
51.1,73.9,0,0,0,11.86,0
46.9,68,0.82,0,0,5.14,1
36,51.1,0,0,0,6.93,1
57,81,0,0,0,10.74,0
41,68,0.06,0,0,10.74,1
46,66.9,0,0,0,6.04,0
32,68,0,0,0,3.8,0
46,69.1,0.01,0,0,6.71,1
55.9,75.9,0.04,0,0,6.49,1
37.9,66.9,0,0,0,2.91,0
55.9,80.1,0,0,0,7.16,0
51.1,66.9,0.94,0,0,8.5,1
46.9,75,0,0,0,8.05,0
52,75,0,0,0,3.8,0
54,75,0,0,0,6.71,1
55,84,0,0,0,10.29,0
63,87.1,0,0,0,10.96,1
68,89.1,0,0,0,10.29,0
66,88,0,0,0,9.62,1
73.9,100,0,0,0,3.13,0
73.9,89.1,0,0,0,6.04,0
69.1,91,0.41,0,0,4.7,1
63,91,0,0,0,3.13,0
72,97,0,0,0,8.5,0
70,98.1,0,0,0,10.29,1
69.1,89.1,0.48,0,0,5.82,1
62.1,81,0,0,0,4.25,0
66.9,91.9,0,0,0,9.4,0
70,87.1,0.85,0,0,4.47,1
71.1,89.1,0,0,0,4.92,1
69.1,79,0.53,0,0,4.25,1
64.9,91,0.6,0,0,3.58,1
71.1,93,0,0,0,3.36,0
72,97,0,0,0,2.91,0
72,97,0.49,0,0,4.47,0
64.9,87.1,0,0,0,3.36,0
66,87.1,0,0,0,6.93,0
70,91.9,0,0,0,3.36,0
66,93.9,0,0,0,2.24,0
70,91,0,0,0,4.92,0
64,89.1,0,0,0,3.36,0
66.9,95,0,0,0,2.91,0
71.1,84,3.43,0,0,12.3,1
72,89.1,0.21,0,0,3.13,1
69.1,90,0.32,0,0,5.59,1
61,90,0,0,0,2.68,0
64,82,0.47,0,0,7.61,1
71.1,88,4.72,0,0,9.62,1
70,87.1,0,0,0,6.71,1
70,86,0,0,0,4.25,1
55.9,81,0,0,0,5.37,0
59,64,0.33,0,0,16.55,1
64.9,80.1,0.18,0,0,3.58,1
64,75.9,0.29,0,0,2.46,1
39,61,0,0,0,6.93,0
35.1,60.1,0,0,0,5.59,0
48,63,0.03,0,0,9.84,1
57.9,77,0.02,0,0,7.61,1
35.1,60.1,0,0,0,4.47,0
34,55,0,0,0,8.72,0
30.9,66.9,0,0,0,2.91,0
55,57.9,0.13,0,0,8.72,1
55.9,59,0.92,0,0,10.51,1
39,61,0,0,0,4.03,0
51.1,66,0.09,0,0,4.7,1
32,55,0,0,0,3.8,0
28.9,63,0,0,0,2.91,0
36,52,0,0,0,14.09,0
25,43,0,0,0,4.47,0
43,59,0.01,0,0,3.36,1
39,60.1,0.02,0,0,3.36,1
27,42.1,0.05,0,0,6.26,1
32,57.9,0,0,0,2.01,0
41,68,0.16,0,0,18.34,1
36,53.1,0,0,0,9.17,1
33.1,64,0,0,0,10.74,1
32,43,0,0,0,2.46,0
30.9,60.1,0,0,0,8.05,0
42.1,66.9,0.42,0,0,9.17,1
28,50,0,0,0,4.7,0
32,62.1,0,0,0,11.86,0
37,64,0.11,0,0,9.62,1
25,37.9,0,0,0,8.5,0
44.1,75,0,0,0,7.83,0
51.1,69.1,0,0,0,11.86,0
45,63,0,0,0,8.72,1
39.9,57,0.59,0,0,10.74,1
37,64.9,0,0,0,7.38,0
18,36,0,0,0.98,3.58,0
43,68,0,0,0,4.92,0
30.9,57,0,0,0,4.03,0
44.1,66.9,0,0,0,6.04,0
57.9,64.9,0.33,0,0,7.38,1
36,73.9,0,0,0,3.8,0
45,82.9,0,0,0,7.83,0
50,75,0,0,0,5.14,1
61,91,0,0,0,8.05,0
61,89.1,0,0,0,7.38,0
55,84.9,0,0,0,9.62,0
55,75.9,0,0,0,5.59,0
61,82.9,0.17,0,0,6.93,0
55,75,0,0,0,7.61,0
70,87.1,0.01,0,0,9.62,1
57.9,87.1,0,0,0,3.8,0
66.9,84,0.54,0,0,4.92,1
70,91.9,0,0,0,8.28,0
66,91,0,0,0,3.13,0
70,91.9,0,0,0,2.91,0
70,86,0,0,0,5.59,0
69.1,97,0,0,0,5.14,0
64.9,91,0,0,0,5.37,0
64.9,88,0,0,0,4.7,0
63,91.9,0,0,0,5.59,0
66.9,79,0.19,0,0,5.14,1
73,93,0.03,0,0,12.53,1
66.9,95,0,0,0,3.58,1
69.1,91,0,0,0,7.61,0
71.1,81,0,0,0,2.01,1
69.1,90,0.08,0,0,2.01,1
73,98.1,0,0,0,9.84,0
73,91.9,0,0,0,6.71,1
75.9,93.9,0,0,0,8.05,0
71.1,90,0.37,0,0,4.03,1
64.9,72,0.14,0,0,5.59,1
55.9,82.9,0,0,0,2.91,0
64.9,71.1,0.37,0,0,4.03,1
70,89.1,0,0,0,4.03,0
68,91.9,0,0,0,5.14,0
60.1,97,0,0,0,6.93,0
72,100.9,0,0,0,2.91,0
73,100.9,0.24,0,0,3.8,1
73,86,0.01,0,0,3.58,1
73.9,93.9,0,0,0,7.83,0
71.1,98.1,0,0,0,4.7,0
72,96.1,0.11,0,0,5.14,1
71.1,88,0,0,0,2.01,0
70,93,0,0,0,6.93,0
66,89.1,0,0,0,4.7,0
72,88,0.4,0,0,6.93,1
66.9,81,0.15,0,0,1.12,1
70,86,0,0,0,3.13,0
72,90,0.55,0,0,7.16,1
60.1,79,0.02,0,0,4.25,1
55,78.1,0,0,0,3.36,0
59,64.9,0.69,0,0,3.13,1
62.1,84.9,0.06,0,0,3.8,1
57.9,73,0,0,0,2.46,0
48,57,0,0,0,3.36,0
46,68,0,0,0,2.68,0
42.1,73.9,0,0,0,0.45,0
46,80.1,0,0,0,2.68,0
42.1,51.1,0.55,0,0,10.07,1
37,55.9,0,0,0,7.83,0
35.1,54,0,0,0,4.03,0
34,61,0,0,0,2.68,0
42.1,59,0,0,0,2.68,0
28.9,66.9,0,0,0,5.14,0
23,51.1,0,0,0,4.92,0
50,66,0.01,0,0,4.92,1
33.1,51.1,0.13,0,0,5.82,1
33.1,64.9,0,0,0,3.13,0
25,55,0,0,0,4.47,0
28,46,0,0,0,5.37,0
35.1,50,0,0,0,3.58,1
39,55,0.59,0,0,7.61,1
28,52,0,0,0,3.8,0
30.9,52,0,0,0,2.68,0
28.9,61,0,0,0,2.91,0
24.1,37,0,0,0,6.71,0
18,52,0,0,0,5.14,0
39.9,62.1,0.08,0,0,3.58,1
43,59,0,0,0,8.72,0
33.1,50,0,0,0,4.03,0
27,46,0,0,0,4.47,0
26.1,50,0,0,0,4.7,0
30,51.1,0,0,0,5.37,0
39,70,0,0,0,9.17,0
46,78.1,0,0,0,10.51,0
39,64,0,0,0,7.61,0
62.1,81,0,0,0,12.3,0
44.1,79,0,0,0,3.36,0
64,84,0.57,0,0,15.21,0
46,71.1,0,0,0,3.58,0
53.1,72,0,0,0,2.91,0
55,62.1,0.97,0,0,4.92,0
48,69.1,0,0,0,9.84,0
50,71.1,0,0,0,4.92,0
52,72,0.18,0,0,3.58,0
55,86,0,0,0,9.84,0
66.9,75,1.47,0,0,5.59,0
64.9,82,0.18,0,0,7.16,0
52,70,0,0,0,5.82,0
48.9,80.1,0,0,0,4.92,0
66,87.1,0,0,0,6.93,0
64,90,0,0,0,4.92,0
62.1,86,0,0,0,3.58,0
71.1,91.9,0,0,0,3.13,0
61,75,0,0,0,5.59,0
64.9,82.9,0,0,0,8.28,0
71.1,91,1.16,0,0,7.61,0
66,86,0.06,0,0,5.82,0
51.1,73.9,0,0,0,2.91,0
54,78.1,0,0,0,2.01,0
57,77,0.43,0,0,7.16,0
61,70,0,0,0,1.12,0
55.9,69.1,0,0,0,3.13,0
51.1,64,0,0,0,2.46,0
46,66.9,0,0,0,7.16,0
33.1,55.9,0,0,0,3.36,0
64,86,0,0,0,5.59,0
66.9,89.1,0,0,0,9.17,0
68,75.9,5.14,0,0,4.92,0
66,84,0.04,0,0,3.36,0
70,84.9,0.66,0,0,11.63,0
71.1,89.1,0,0,0,8.5,0
69.1,91.9,1.66,0,0,9.17,0
69.1,82.9,0.72,0,0,6.26,0
72,77,0.3,0,0,8.5,0
73,88,0,0,0,7.16,0
70,88,0,0,0,6.71,0
64.9,87.1,0,0,0,2.46,0
63,88,0,0,0,2.01,0
57.9,75.9,0,0,0,6.71,0
53.1,80.1,0,0,0,3.58,0
57,77,0,0,0,4.7,0
50,73,0,0,0,4.92,0
62.1,86,0,0,0,3.58,0
61,89.1,0,0,0,2.24,0
59,66,0.02,0,0,2.68,0
46,70,0.03,0,0,4.7,0
33.1,57.9,0,0,0,2.91,0
30.2,60.1,0,0,0,1.57,0
36,60.1,0,0,0,0.67,0
24.3,48.9,0,0,0,2.91,0
37.9,46.9,0.85,0,0,4.92,0
22.1,43,0,0,0,7.38,0
19.2,37.9,0,0,0,2.24,0
26.2,51.1,0.1,0.51,0,4.92,0
18.1,30.2,0,0,0,4.47,0
15.3,53.1,0,0,0,2.01,0
24.3,59,0,0,0,2.91,0
37.9,53.1,0.06,0,0,4.7,0
28.2,45,0,0,0,6.26,0
34,66.9,0,0,0,6.49,0
30.2,44.1,0,0,0,4.03,0
33.1,36,1.72,0,0,10.29,0
46,72,0,0,0,8.5,0
30.2,50,0,0,0,4.7,0
29.1,46.9,0,0,0,6.93,0
44.1,69.1,0.31,0,0,6.71,0
50,78.1,0,0,0,4.92,0
52,78.1,0,0,0,13.42,0
59,81,0,0,0,11.18,0
31.1,64,0,0,0,7.83,0
50,71.1,0,0,0,6.04,0
55,73,0.18,0,0,7.16,0
46,68,0,0,0,3.8,0
50,79,0,0,0,8.05,0
63,82,0,0,0,5.14,0
57.9,87.1,0,0,0,2.91,0
61,90,0,0,0,5.82,0
73.9,96.1,0.02,0,0,6.93,0
71.1,93.9,0,0,0,7.16,0
60.1,84,0,0,0,2.24,0
63,82,0,0,0,2.01,0
57.9,82.9,0,0,0,2.91,0
68,89.1,0,0,0,3.36,0
71.1,91.9,0,0,0,2.24,0
72,84,0.01,0,0,5.59,0
72,82,0.07,0,0,6.26,0
71.1,93,0,0,0,4.92,0
71.1,90,1.18,0,0,3.8,0
70,80.1,0.01,0,0,5.59,0
63,75,0,0,0,2.68,0
66,79,0,0,0,6.04,0
61,75.9,0,0,0,2.68,0
55,64,0.15,0,0,7.83,0
59,75.9,0,0,0,5.37,0
59,75,0,0,0,1.34,0
59,84,0,0,0,2.91,0
57.9,86,0.22,0,0,9.4,0
57,62.1,0.02,0,0,5.59,0
42.1,70,0,0,0,4.25,0
39.9,75.9,0,0,0,1.57,0
45,51.1,0.61,0,0,8.5,0
46.9,71.1,0,0,0,6.04,0
37.9,60.1,0,0,0,4.03,0
31.1,60.1,0,0,0,2.91,0
35.1,66,0,0,0,2.46,0
29.1,44.1,0,0,0,5.37,0
27.1,48.9,0.04,0,0,1.79,0
19.2,43,0,0,0,5.82,0
26.2,45,0,0,0,2.46,0
44.1,73.9,0,0,0,6.04,0
39.9,54,0,0,0,6.26,0
46,55.9,0.16,0,0,3.58,0
34,45,0.13,0,0,8.5,0
26.2,57,0,0,0,3.58,0
29.1,57.9,0,0,0,1.34,0
36,41,0.4,0,0,6.71,0
28.2,33.1,0.01,0,0,4.92,0
36,54,0,0,0,4.92,0
37.9,50,0.24,0,0,2.91,0
22.1,48,0,0,0,2.46,0
22.1,45,0,0,0,3.36,0
39,72,0,0,0,14.09,0
30.2,51.1,0,0,0,4.92,0
23.2,35.1,0,0,0,4.92,0
22.1,53.1,0,0,0,11.18,0
12.2,23.2,0,0,0,8.5,0
34,57,0.08,0,0,2.46,0
30.2,46.9,0.03,0,0,7.38,0
32,66,0.97,0,0,10.51,0
41,80.1,0,0,0,4.92,0
48.9,68,0.45,0,0,12.75,1
50,71.1,0.13,0,0,8.05,1
30,55,0,0,0,7.61,1
24.1,51.1,0,0,0,3.13,0
50,73.9,0,0,0,8.5,0
30,34,0.44,0.59,0,4.25,1
19.9,50,0,0,0,4.03,0
19,48,0,0,0,7.61,0
28,57,0,0,0,3.8,0
42.1,51.1,0.56,0,0,6.71,1
34,64.9,0,0,0,2.46,0
35.1,70,0,0,0,8.95,0
37,71.1,0,0,0,4.25,0
54,81,0,0,0,9.17,0
48.9,77,0,0,0,6.71,0
61,81,0.1,0,0,2.91,1
51.1,73,0,0,0,3.8,0
54,62.1,0.12,0,0,4.25,1
54,61,0.01,0,0,2.68,0
19.9,37,0,0,0,3.36,0
37,39.9,0.01,0,0,6.71,0
25,51.1,0,0,0,3.36,0
18,48,0,0,2.99,0.67,0
30,44.1,0,0,0,3.13,0
48.9,68,0.42,0,0,8.28,0
37,73.9,0,0,0,2.46,0
52,66.9,1.52,0,0,3.8,1
41,77,0,0,0,4.47,0
37.9,75,0,0,0,2.01,0
42.1,73.9,0,0,0,3.58,0
59,78.1,0,0,0,9.84,1
37.9,75,0,0,0,4.25,0
62.1,90,0,0,0,11.86,0
68,95,0,0,0,4.47,1
69.1,88,0,0,0,9.17,1
64,82,0,0,0,3.58,0
68,88,0,0,0,11.18,0
72,89.1,0,0,0,5.59,0
75,84,0.6,0,0,2.68,1
71.1,90,0,0,0,5.82,1
70,82.9,0.47,0,0,5.82,1
66,90,0,0,0,1.57,0
54,87.1,0,0,0,3.13,0
66,79,0.1,0,0,4.47,1
73,95,0,0,0,7.38,0
36,66,0,0,0,4.03,0
37.9,69.1,0,0,0,0.45,0
30.9,70,0.29,0,0,12.08,1
28,35.1,0.6,0.39,0,4.47,1
39,63,0.28,0,0,4.25,1
32,48,0.15,0,0,2.24,1
42.1,61,0,0,0,5.14,0
30,57.9,0,0,0,3.8,1
46.9,66,0,0,0,4.25,0
36,66.9,0,0,0,5.14,0
61,72,0.11,0,0,5.14,0
61,80.1,0.01,0,0,3.13,0
54,82.9,0,0,0,3.8,0
68,78.1,0.22,0,0,9.4,0
60.1,84.9,0,0,0,7.16,0
63,88,0,0,0,6.93,0
52,75,0,0,0,3.13,0
68,87.1,0.15,0,0,4.7,0
66,88,0,0,0,4.25,0
71.1,98.1,2.1,0,0,5.59,0
73.9,95,0,0,0,4.92,0
71.1,91.9,0.31,0,0,5.82,0
66.9,91.9,0.02,0,0,6.71,0
66,91,0,0,0,2.68,0
73.9,84.9,0,0,0,5.82,0
55.9,66.9,0.18,0,0,6.93,0
46.9,73,0,0,0,2.91,0
41,79,0,0,0,2.01,0
48.9,79,0,0,0,4.92,0
55,63,0.15,0,0,2.01,0
59,66,1.52,0,0,4.7,0
34,60.1,0,0,0,3.36,0
64.9,91.9,0,0,0,3.58,0
72,99,0,0,0,3.8,0
71.1,93.9,0.01,0,0,4.7,0
64,91,0,0,0,4.03,0
68,82.9,0,0,0,8.5,0
70,75,0.49,0,0,10.74,0
71.1,82.9,0.23,0,0,6.93,0
66.9,80.1,0,0,0,3.58,0
71.1,82.9,0.14,0,0,7.61,0
62.1,75.9,0,0,0,8.5,0
60.1,72,0,0,0,10.29,0
53.1,70,0,0,0,5.82,0
37,64.9,0,0,0,3.36,0
36,70,0,0,0,4.7,0
24.3,64,0.06,0,0,1.57,0
46.9,72,0.06,0,0,1.57,0
31.1,59,0,0,0,5.37,0
64.9,77,0.07,0,0,12.97,0
68,89.1,0,0,0,8.05,0
66.9,90,0,0,0,7.38,0
66.9,86,0.08,0,0,6.71,0
64,87.1,0.08,0,0,3.13,0
68,82,0.06,0,0,4.03,0
70,89.1,0.47,0,0,2.46,0
71.1,95,0.05,0,0,6.49,0
75,93.9,0,0,0,8.72,0
73.9,91,0,0,0,4.7,0
72,90,0,0,0,5.82,0
72,93.9,0.02,0,0,7.61,0
57.9,87.1,0,0,0,4.47,0
66,91,0,0,0,3.36,0
48,71.1,0,0,0,7.16,0
73,89.1,1.12,0,0,8.05,0
51.1,69.1,0.25,0,0,5.82,0
37,68,0,0,0,2.68,0
61,75.9,1.12,0,0,10.74,0
52,72,0,0,0,6.49,0
44.1,63,0.1,0,0,6.49,0
42.1,60.1,0.64,0,0,4.25,0
29.1,66.9,0,0,0,4.92,0
32,43,1.33,0.31,0,5.82,0
30.2,46.9,0,0,0,7.61,0
27.1,43,0,0,0,2.24,0
27.1,45,0,0,0,4.7,0
27.1,52,0,0,0,4.92,0
12.2,31.1,0,0,0,5.59,0
12.2,27.1,0,0,0,4.03,0
29.1,63,0,0,0,2.68,0
21.2,33.1,0,0,0,8.72,0
20.1,46.9,0,0,0,1.79,0
26.2,48.9,0,0,0,3.13,0
52,60.1,1.3,0,0,5.14,0
19.2,46.9,0,0,0,5.82,0
28.2,57.9,0,0,0,4.03,0
54,75,0,0,0,14.32,0
63,77,0,0,0,8.95,0
52,70,0,0,0,4.92,0
31.1,44.1,0,0,0,7.61,0
27.1,50,0.91,0.2,0,3.58,0
33.1,62.1,0.99,0,0,8.05,0
39.9,57,0,0,0,5.14,0
39,62.1,0,0,0,5.37,0
42.1,70,0,0,0,5.59,0
44.1,66,0,0,0,5.82,0
36,72,0,0,0,4.03,0
66,93,0,0,0,6.04,0
69.1,77,0.69,0,0,7.16,0
66.9,84.9,0.05,0,0,5.82,0
68,87.1,0.33,0,0,8.5,0
73,84.9,0.49,0,0,5.59,0
71.1,88,0,0,0,7.16,0
61,84.9,0.23,0,0,5.14,0
64,84.9,0.31,0,0,8.72,0
63,70,0.01,0,0,6.26,0
72,91.9,0.12,0,0,3.58,0
71.1,95,0,0,0,6.04,0
73,96.1,0.07,0,0,7.61,0
66,73.9,0.74,0,0,6.93,0
68,90,0,0,0,4.92,0
70,91.9,0,0,0,4.25,0
71.1,93,0.34,0,0,3.8,0
66.9,79,0.65,0,0,9.4,0
64.9,89.1,0,0,0,4.03,0
68,95,0,0,0,6.04,0
73.9,95,0,0,0,8.05,0
72,98.1,0.1,0,0,8.5,0
72,89.1,0,0,0,6.71,0
69.1,86,0,0,0,9.4,0
71.1,86,0,0,0,7.38,0
72,86,0.72,0,0,4.47,0
69.1,91,0,0,0,2.01,0
73,88,0.49,0,0,9.84,0
60.1,88,0,0,0,2.68,0
69.1,90,0,0,0,2.24,0
71.1,91.9,0,0,0,2.91,0
68,88,0,0,0,2.91,0
66.9,87.1,0,0,0,4.25,0
64,75.9,0,0,0,5.37,0
70,79,0.21,0,0,4.25,0
60.1,82,0,0,0,3.36,0
66,89.1,0,0,0,2.68,0
63,79,2.6,0,0,11.63,0
51.1,71.1,0,0,0,2.91,0
48.9,64.9,0,0,0,3.58,0
54,66.9,0.21,0,0,8.05,0
42.1,64,0,0,0,8.5,0
42.1,72,0,0,0,8.5,0
55,75,0.11,0,0,10.29,0
42.1,59,0,0,0,3.8,0
25.2,42.1,0,0,0,6.71,0
30.2,48,0,0,0,4.03,0
30.2,34,0.73,1.89,1.18,7.61,0
27.1,44.1,0,0,1.97,3.8,0
42.1,60.1,0,0,0,7.61,0
36,61,0,0,0,5.82,0
45,66,0.68,0,0,8.72,0
29.1,51.1,0,0,0,4.03,0
46.9,55,0.21,0,0,2.68,0
27.1,39,0,0,0,6.93,0
32,37,1.04,0,0,7.38,0
26.2,54,0,0,0,3.13,0
28.2,48.9,0.01,0,0,4.7,0
39,59,0,0,0,4.92,0
26.2,53.1,0,0,0,2.91,0
33.1,61,0,0,0,0,0
36,46,0.15,0,0,3.58,0
39.9,53.1,0.69,0,0,7.38,0
46.9,68,0.04,0,0,9.4,0
35.1,60.1,0,0,0,2.68,0
32,60.1,0,0,0,4.47,0
51.1,71.1,0.54,0,0,7.38,0
45,73.9,0,0,0,8.28,0
53.1,75.9,0,0,0,10.96,0
30.9,39.9,0.35,0,0,,0
57,66.9,0.09,0,0,2.01,1
60.1,66,0.02,0,0,3.8,1
45,73.9,0,0,0,2.68,0
57.9,81,0.27,0,0,11.41,1
59,80.1,0.06,0,0,8.28,1
42.1,75.9,0,0,0,0.89,0
48,57,2.97,0,0,15.21,1
48.9,52,0.58,0,0,6.26,1
42.1,62.1,0.18,0,0,10.51,1
37.9,50,0,0,0,5.14,0
48,59,0,0,0,4.47,0
24.1,48.9,0,0,0,0.45,0
27,48,0,0,0,5.82,0
17.1,36,0,0,0,6.26,0
33.1,42.1,1.37,0,0,11.41,1
32,39.9,0.35,0,0,4.7,1
28,37.9,0,0,0,13.42,0
30,45,0,0,0,8.28,0
28,42.1,0.05,0.98,2.01,4.92,1
25,43,0,0,0,7.16,0
25,64.9,0,0,0,3.8,0
28.9,50,0,0,0,10.29,0
28.9,54,0,0,0,3.36,0
52,69.1,0.32,0,0,4.47,1
57,70,0.36,0,0,3.8,1
64,73,0.04,0,0,7.83,1
60.1,91,0,0,0,3.58,0
68,93.9,0,0,0,4.7,1
73,93,0,0,0,4.92,0
72,93.9,0,0,0,3.58,0
73,99,0,0,0,8.5,0
57,87.1,0,0,0,3.58,0
64,97,0,0,0,6.04,0
75,97,0,0,0,2.68,0
80.1,102,0,0,0,8.95,0
66,79,0.1,0,0,4.92,1
73.9,95,0.39,0,0,8.05,1
64.9,87.1,0,0,0,6.26,0
68,98.1,0,0,0,7.61,0
50,72,0,0,0,5.14,0
43,71.1,0,0,0,5.82,1
42.1,70,0,0,0,3.58,0
48.9,82,0,0,0,3.36,0
73,87.1,0.29,0,0,13.87,1
39.9,61,0,0,0,3.58,1
48,68,0,0,0,8.72,0
41,73.9,0.05,0,0,16.33,1
33.1,61,0,0,0,5.82,0
57,81,0.62,0,0,14.32,1
30,66,0,0,0,4.47,0
27,61,0,0,0,5.82,0
43,69.1,0,0,0,8.5,0
39,64.9,0.67,0,0,10.51,1
36,51.1,0,0,0,6.04,0
43,57.9,0,0,0,9.17,0
50,68,0.04,0,0,7.83,1
35.1,39.9,0.07,0,0,6.93,1
33.1,71.1,0,0,0,5.37,0
55.9,84.9,0,0,0,18.57,0
34,68,0,0,0,7.61,0
61,78.1,0.01,0,0,15.21,1
53.1,71.1,0.12,0,0,3.36,1
60.1,66,0.02,0,0,4.47,1
62.1,79,0.73,0,0,3.8,1
55.9,78.1,0,0,0,3.36,0
55,75,0,0,0,3.13,0
70,93,0,0,0,7.16,0
73,93,0,0,0,11.86,0
70,93.9,0,0,0,5.59,0
70,95,0,0,0,3.8,0
70,93.9,0.3,0,0,6.49,1
69.1,93,0,0,0,6.49,0
69.1,91.9,0,0,0,3.8,0
60.1,86,0,0,0,6.93,0
77,102,0,0,0,4.7,0
79,100.9,0,0,0,6.26,0
75,102,0,0,0,7.16,0
75.9,89.1,0,0,0,7.16,1
69.1,91,0,0,0,4.25,0
69.1,89.1,0,0,0,4.25,0
73.9,89.1,0,0,0,8.72,1
66,82,0,0,0,6.93,0
66.9,86,0.04,0,0,4.25,1
69.1,88,0,0,0,7.83,0
69.1,82.9,0,0,0,3.8,1
63,84,0,0,0,1.34,1
63,84.9,0,0,0,3.8,0
63,88,0,0,0,2.68,0
57.9,89.1,1.31,0,0,8.95,1
45,62.1,0,0,0,5.37,0
44.1,72,0,0,0,2.24,0
48.9,77,0,0,0,1.12,0
45,73.9,0,0,0,3.36,0
41,66,0,0,0,2.24,0
37.9,71.1,0,0,0,0.89,0
32,64.9,0,0,0,6.26,0
27,51.1,0,0,0,1.57,0
35.1,70,0,0,0,3.58,0
60.1,71.1,0.02,0,0,8.72,1
44.1,70,0.54,0,0,13.42,1
32,55,0,0,0,1.12,0
30.9,63,0,0,0,0.22,0
36,52,0,0,0,1.12,0
36,57,0.11,0,0,6.93,1
28,60.1,0,0,0,4.25,0
34,57.9,0,0,0,3.36,0
21,42.1,0,0,0,7.61,0
42.1,57.9,0.25,0,0,4.47,1
51.1,64.9,0.73,0,0,5.82,1
32,52,0,0,0,10.07,1
60.1,82.9,0.03,0,0,6.26,1
55.9,71.1,0.66,0,0,4.7,1
44.1,78.1,0,0,0,13.87,0
48.9,77,0,0,0,6.49,1
48.9,73,0,0,0,7.83,0
46,73.9,0,0,0,7.16,0
60.1,84,0,0,0,11.41,0
55,69.1,0.31,0,0,7.83,1
51.1,73,0,0,0,2.01,0
36,64,0,0,0,6.93,0
59,77,0,0,0,5.14,0
62.1,90,0,0,0,5.37,0
57.9,77,0.51,0,0,3.8,1
46.9,77,0,0,0,3.8,0
64.9,82.9,0.15,0,0,4.25,1
66,82.9,0.01,0,0,2.91,1
61,81,0,0,0,6.71,1
59,77,0,0,0,8.72,0
62.1,86,0,0,0,4.25,1
64,84,0.03,0,0,4.25,1
66,86,0.35,0,0,5.14,1
72,89.1,0,0,0,7.61,0
64,90,0.11,0,0,4.47,1
64.9,88,1.19,0,0,7.83,1
55.9,75.9,0,0,0,3.13,0
54,81,0,0,0,3.13,0
63,86,0,0,0,6.26,1
46.9,66.9,0,0,0,4.03,0
52,75,0,0,0,3.8,0
52,61,0.31,0,0,5.59,0
55.9,78.1,0,0,0,2.01,0
52,70,0.63,0,0,4.92,0
39,68,0,0,0,4.03,0
43,70,0,0,0,2.01,0
53.1,82,0,0,0,7.61,0
66.9,87.1,0,0,0,7.38,0
72,91,0,0,0,6.71,0
71.1,88,0,0,0,2.24,0
73,90,0,0,0,4.03,0
73,95,0,0,0,5.37,0
69.1,87.1,0.29,0,0,7.38,0
63,88,0,0,0,2.46,0
68,93.9,0.1,0,0,3.36,0
64,70,1.42,0,0,11.41,0
70,80.1,0.28,0,0,8.72,0
57.9,69.1,0.13,0,0,17.67,0
46.9,68,0.01,0,0,2.24,0
59,70,0,0,0,3.13,0
27.1,57,0,0,0,0.67,0
30.2,59,0,0,0,2.91,0
39,70,0,0,0,3.36,0
43,53.1,0.04,0,0,2.01,0
36,61,0,0,0,2.24,0
50,71.1,0,0,0,6.26,0
48,72,0,0,0,5.59,0
43,64.9,0,0,0,4.7,0
27.1,54,0,0,0,2.01,0
61,73,1.68,0,0,9.17,0
63,66.9,1.79,0,0,5.14,0
37,44.1,0,0,0,5.82,0
28.2,54,0,0,0,9.17,0
18.1,32,0,0,0,4.47,0
18.1,39,0,0,0,4.25,0
26.2,44.1,0,0,0,3.8,0
24.3,52,0,0,1.18,4.7,0
28.2,55.9,0.09,0,0,3.8,0
15.3,32,0,0,0,5.82,0
26.2,53.1,0,0,0,6.49,0
43,66,0,0,0,10.07,0
45,73,0.46,0,0,14.99,0
37.9,73.9,0,0,0,9.17,0
35.1,68,0,0,0,7.61,0
59,78.1,0,0,0,5.82,0
60.1,77,0.89,0,0,6.93,0
46,77,0,0,0,4.03,0
66.9,78.1,0.01,0,0,14.32,0
55.9,71.1,0.25,0,0,10.29,0
46,75.9,0,0,0,12.08,0
37,62.1,0,0,0,8.95,0
29.1,63,0,0,0,6.93,0
46.9,75.9,0,0,0,11.63,0
53.1,81,0,0,0,8.95,0
59,84,0,0,0,11.41,0
57.9,64.9,0,0,0,8.05,0
55,73.9,0,0,0,2.24,0
50,66.9,0.68,0,0,3.8,0
57,69.1,0.27,0,0,4.7,0
57,62.1,0.07,0,0,4.47,0
62.1,77,0.3,0,0,3.8,0
59,87.1,0,0,0,2.91,0
66,84,0.5,0,0,4.92,0
70,91,0.45,0,0,3.58,0
66.9,91,1.62,0,0,6.49,0
64.9,90,0,0,0,4.7,0
69.1,89.1,0.91,0,0,4.7,0
71.1,88,1.66,0,0,4.25,0
70,78.1,1.48,0,0,5.82,0
68,91,0,0,0,5.82,0
73.9,93,0,0,0,4.7,0
75,97,0.13,0,0,7.83,0
73,91,0.04,0,0,5.82,0
77,96.1,0,0,0,6.26,0
75,96.1,0,0,0,6.04,0
73.9,93,0,0,0,4.25,0
64,75,1.13,0,0,11.41,0
66.9,93.9,0,0,0,4.47,0
69.1,88,0,0,0,6.71,0
62.1,79,0,0,0,2.68,0
62.1,79,0,0,0,3.13,0
27.1,41,0,0,0,3.8,0
27.1,59,0,0,0,2.24,0
39,63,0.35,0,0,7.83,0
46.9,51.1,1.08,0,0,5.59,0
29.1,44.1,0,0,0,2.01,0
42.1,55,0,0,0,6.71,0
39.9,57,0.02,0,0,5.82,0
53.1,55.9,0.09,0,0,5.82,0
43,70,0.06,0,0,13.42,0
31.1,68,0,0,0,12.75,0
26.2,45,0,0,0,4.7,0
32,60.1,0.11,0,0,10.96,0
30.2,64,0,0,0,4.7,0
34,66,0,0,0,6.71,0
44.1,66,0,0,0,5.82,0
31.1,54,0,0,0,6.71,0
34,64.9,0,0,0,6.71,0
30.2,54,0.25,0,0,10.51,0
23.2,57.9,0.03,0,0,4.92,0
44.1,64,0.5,0,0,7.83,0
36,57,0,0,0,7.16,0
30.2,66,0,0,0,3.58,0
31.1,55.9,0,0,0,7.38,0
55,66.9,0,0,0,8.95,0
37.9,77,0,0,0,4.47,0
55,82,0,0,0,10.51,0
62.1,86,0.05,0,0,9.84,0
57.9,70,2.17,0,0,6.93,0
55.9,81,0,0,0,5.37,0
68,84.9,0.29,0,0,15.66,0
53.1,66.9,0.02,0,0,10.96,0
61,84,0.48,0,0,4.92,0
52,66,0.23,0,0,4.47,0
66,86,0,0,0,10.96,0
62.1,84.9,0,0,0,1.57,0
57,88,0,0,0,3.36,0
61,90,0.38,0,0,5.82,0
59,77,0,0,0,10.29,0
66.9,90,0,0,0,6.26,0
66.9,89.1,0,0,0,6.49,0
70,89.1,2.3,0,0,4.03,0
66.9,84,0,0,0,3.58,0
78.1,97,0,0,0,8.5,0
75,93.9,0,0,0,5.82,0
71.1,89.1,0,0,0,5.14,0
66.9,93.9,0,0,0,2.68,0
73.9,98.1,0,0,0,5.59,0
68,91.9,0,0,0,6.49,0
64.9,90,0,0,0,7.61,0
66.9,84,0,0,0,6.71,0
71.1,95,0,0,0,3.58,0
73.9,96.1,0,0,0,7.61,0
68,84.9,0,0,0,5.14,0
63,81,0,0,0,9.17,0
62.1,78.1,0.03,0,0,11.41,0
64,78.1,1.06,0,0,7.83,0
61,82,0.52,0,0,4.92,0
63,84.9,0,0,0,1.79,0
63,93.9,0,0,0,3.13,0
32,34,0.3,0,0,5.82,0
50,72,0,0,0,5.14,0
46.9,75,0,0,0,3.13,0
55,77,0,0,0,6.93,0
48.9,75,0,0,0,2.68,0
55.9,70,0.01,0,0,4.7,1
39.9,52,0,0,0,5.14,1
42.1,78.1,0,0,0,1.79,0
54,75.9,0.04,0,0,5.82,1
48.9,70,0.92,0,0,10.51,1
42.1,60.1,0.03,0,0,4.7,0
37.9,60.1,0,0,0,2.68,0
48,55,0.03,0,0,11.41,1
44.1,73,0,0,0,0,0
42.1,63,0,0,0,3.58,0
39,57,0,0,0,3.58,0
39,71.1,0,0,0,7.83,0
39.9,68,2.3,0,0,8.72,1
39,68,0,0,0,9.4,0
27,51.1,0,0,0,1.79,0
39.9,70,0.76,0,0,14.99,1
35.1,59,0,0,0,8.95,0
30.9,37,0.46,0.12,0,9.4,1
28,55,0,0,0,3.58,0
23,37.9,0.07,0,0,3.58,1
32,46,0.11,0,0,1.57,1
28,37.9,0,0,0,2.68,0
37,64.9,0,0,0,4.47,1
39.9,64.9,0.13,0,0,9.62,1
28,46,0.1,1.42,0,7.16,1
28.9,37,0.09,0,0.98,5.14,1
21.9,42.1,0,0,0,2.24,0
26.1,39,0.1,0.98,0,1.79,1
24.1,46.9,0,0,0,4.92,0
25,54,0,0,0,3.13,0
33.1,44.1,0.12,0.59,0.98,6.04,1
25,51.1,0,0,0,3.36,0
30,66,0,0,0,2.01,0
57,64,0.09,0,0,6.71,1
45,62.1,0.22,0,0,5.59,1
39.9,62.1,0,0,0,5.37,0
52,69.1,0,0,0,8.95,0
36,66.9,0.06,0,0,8.95,1
51.1,69.1,0,0,0,7.83,0
55,80.1,0,0,0,7.83,0
61,87.1,0,0,0,12.97,0
62.1,81,0.13,0,0,15.21,1
50,86,0,0,0,8.28,0
48,64.9,0.33,0,0,2.68,1
50,82.9,0,0,0,9.62,0
61,89.1,0,0,0,10.51,0
57.9,82,0,0,0,3.8,0
68,91.9,0,0,0,8.05,1
61,90,0,0,0,7.83,0
64,84.9,0,0,0,11.18,1
64,75.9,0,0,0,6.93,0
55.9,77,2.3,0,0,8.28,1
66,82,0.59,0,0,4.92,1
64.9,84,0.02,0,0,5.14,1
69.1,88,0,0,0,7.38,0
72,93,0.18,0,0,10.29,1
73,96.1,0,0,0,4.25,0
71.1,96.1,0,0,0,3.58,0
72,88,0.18,0,0,8.05,1
72,82.9,0.32,0,0,5.14,1
70,86,0,0,0,4.03,0
73.9,95,0.8,0,0,10.51,1
71.1,90,0,0,0,3.58,0
71.1,93,0,0,0,3.36,0
73.9,97,0,0,0,6.49,0
73.9,88,0,0,0,7.16,0
69.1,95,0,0,0,2.91,0
57.9,90,0,0,0,3.36,0
66.9,89.1,0,0,0,6.71,0
44.1,62.1,0,0,0,4.92,0
37,73,0,0,0,1.57,0
39.9,70,0,0,0,1.79,0
32,69.1,0,0,0,1.34,0
34,54,0,0,0,4.25,0
27,55,0,0,0,4.25,1
33.1,48.9,0,0,0,2.01,0
28.9,41,0.27,0.79,0,0.89,1
28.9,41,0,0,0,6.93,0
25,37.9,0,0,0,8.28,0
24.1,48,0,0,0,0.22,0
26.1,41,0.17,0,0,2.91,1
28,43,0,0,0,2.24,0
35.1,69.1,0,0,0,3.8,0
44.1,68,0.18,0,0,14.32,1
30,50,0,0,0,8.05,1
72,97,0,0,0,4.92,0
69.1,84.9,0,0,0,4.92,0
66,91,0,0,0,4.47,0
73.9,91.9,0.41,0,0,7.83,1
78.1,102.9,0,0,0,7.16,0
70,97,0,0,0,2.91,0
71.1,88,0,0,0,6.26,0
73.9,88,1.59,0,0,10.29,1
64.9,88,0,0,0,2.46,0
66,73.9,0.68,0,0,3.58,1
66,80.1,0,0,0,8.05,0
30,57.9,0,0,0,2.91,0
37,61,0,0,0,2.46,0
39.9,64.9,0,0,0,3.36,0
39.9,66.9,0.01,0,0,3.58,1
61,77,0,0,0,6.93,0
39.9,66.9,0.97,0,0,12.3,1
28.9,64,0,0,0,1.57,0
39.9,62.1,0,0,0,5.82,0
24.1,35.1,0,0,0,8.72,0
43,55.9,0,0,0,1.12,0
27,46.9,0,0,0,6.49,0
28,51.1,0,0,0,1.57,0
36,53.1,0,0,0,11.41,0
25,54,0,0,0,3.58,0
30.9,64,0,0,0,2.91,0
54,84,0,0,0,3.36,0
54,84,0,0,0,4.25,1
53.1,77,0.33,0,0,1.79,1
57.9,81,1.58,0,0,3.58,1
59,80.1,0,0,0,4.47,0
39,62.1,0,0,0,5.37,0
43,57.9,0,0,0,6.93,0
32,63,0,0,0,2.68,0
42.1,75.9,0,0,0,8.05,0
52,63,0,0,0,3.8,1
66.9,86,0,0,0,10.51,0
66.9,91,0,0,0,6.26,0
64.9,86,0.19,0,0,3.58,1
71.1,96.1,0,0,0,5.82,0
52,80.1,0,0,0,2.68,0
55,78.1,0,0,0,3.8,0
61,84,0,0,0,4.03,0
75.9,99,0,0,0,6.49,0
73,100.9,0,0,0,4.03,0
68,93,0,0,0,5.14,0
55.9,88,0,0,0,3.8,0
55.9,88,0,0,0,3.36,0
69.1,95,0.62,0,0,9.4,1
69.1,87.1,0.86,0,0,5.14,1
70,90,0.11,0,0,4.25,0
72,91,0.09,0,0,6.71,1
73,95,0.05,0,0,3.13,1
66,88,0.12,0,0,5.82,1
70,88,0,0,0,9.17,0
66.9,91,0,0,0,3.36,0
63,73.9,1.38,0,0,8.05,1
55.9,75.9,0,0,0,9.17,0
57,75,0,0,0,4.25,1
46.9,75,0,0,0,2.68,0
53.1,82,0,0,0,3.8,0
52,79,0,0,0,1.57,0
53.1,70,0.26,0,0,7.83,1
42.1,73.9,0,0,0,6.26,0
28,60.1,0,0,0,2.68,0
37.9,75,0,0,0,4.7,0
46.9,77,0,0,0,3.13,0
33.1,57,0,0,0,4.25,1
55,64,0.81,0,0,3.13,1
36,55.9,0,0,0,6.26,0
26.1,55,0,0,0,2.68,0
28,48.9,0,0,0,,0
25,54,0,0,0,4.03,0
26.1,46.9,0.06,0,0,2.01,1
36,57.9,0.09,0,0,8.95,1
54,70,0,0,0,8.28,0
28.9,57,0,0,0,10.96,0
23,42.1,0,0,0,3.8,0
53.1,60.1,0,0,0,5.82,0
27,50,0,0,0,3.58,0
39.9,57.9,0.06,0,0,6.26,1
15.1,28,0,0,0,4.47,0
32,46,0.15,0,0,7.61,1
27,43,0,0,0,7.38,0
21.9,54,0,0,0,5.37,0
28,44.1,0,0,0,7.38,0
28.9,61,0,0,0,8.28,0
46.9,69.1,0,0,0,8.5,0
61,82.9,0,0,0,9.84,0
46.9,62.1,0,0,0,8.95,0
39,46.9,0.53,0,0,8.72,1
43,48.9,0.87,0,0,2.46,1
41,60.1,0,0,0,6.93,0
62.1,70,0.91,0,0,5.37,1
39,69.1,0,0,0,5.82,0
53.1,70,0.01,0,0,6.49,1
55,78.1,0.06,0,0,15.21,1
46.9,73.9,0,0,0,6.04,0
32,61,0,0,0,10.51,0
51.1,72,0,0,0,9.17,1
45,63,0,0,0,6.26,0
43,68,0,0,0,9.4,0
41,80.1,0,0,0,5.37,0
57.9,82.9,0,0,0,8.28,0
66.9,82,0.07,0,0,12.97,1
66,84,0,0,0,9.84,0
64,86,0,0,0,11.18,0
52,73,0.29,0,0,8.95,1
64.9,88,0,0,0,4.92,1
68,90,0.76,0,0,7.38,1
63,75.9,0,0,0,5.82,0
62.1,86,0,0,0,3.13,0
64.9,84.9,0.07,0,0,4.7,1
68,84.9,0.04,0,0,5.59,1
66,73,0.42,0,0,6.49,1
71.1,91,0.03,0,0,6.26,1
72,90,0,0,0,7.38,0
68,88,0,0,0,3.8,0
68,89.1,0.02,0,0,5.37,1
68,91,0,0,0,3.58,0
66.9,91.9,0.02,0,0,4.92,1
64.9,87.1,0,0,0,4.25,1
60.1,90,0,0,0,4.03,0
66.9,91,0.03,0,0,7.61,1
69.1,82,0.63,0,0,3.36,1
73,97,0.27,0,0,8.05,1
71.1,91.9,0.34,0,0,3.36,1
73,93.9,0,0,0,7.83,0
70,84.9,0.23,0,0,2.68,1
73,99,0,0,0,4.92,0
71.1,84.9,0,0,0,5.59,0
68,88,0,0,0,3.36,0
66.9,95,0,0,0,3.36,0
71.1,91.9,0,0,0,5.14,1
69.1,86,0.01,0,0,2.68,1
57.9,87.1,0,0,0,2.91,0
62.1,91,0,0,0,4.03,0
64,81,1.45,0,0,4.25,1
71.1,82.9,0.25,0,0,2.24,1
62.1,77,0.02,0,0,6.26,1
69.1,88,0,0,0,5.82,0
69.1,93,0,0,0,2.46,0
73,97,0,0,0,5.37,0
73.9,93,0,0,0,4.92,0
73.9,97,0,0,0,6.71,0
64.9,98.1,0,0,0,1.79,0
63,69.1,1.69,0,0,8.05,1
50,73.9,0,0,0,4.47,0
57.9,87.1,0,0,0,5.59,0
62.1,79,0,0,0,4.25,0
55,71.1,1.11,0,0,4.92,1
39.9,78.1,0,0,0,3.8,0
48.9,78.1,0,0,0,6.49,0
61,78.1,0.27,0,0,7.61,1
28.9,39,0.01,0,0,4.92,1
41,52,0,0,0,2.01,0
19.9,37,0,0,4.02,8.05,0
24.1,46,0,0,0,0.89,0
37,62.1,0.17,0,0,7.38,1
26.1,37.9,0,0,0,9.17,0
19.9,42.1,0,0,0,3.8,0
26.1,50,0,0,0,6.71,0
25,39.9,0,0,0,4.25,0
24.1,57,0,0,0,5.14,0
37.9,72,0,0,0,11.41,0
42.1,68,0.47,0,0,9.84,1
30.9,69.1,0,0,0,10.07,0
45,77,0,0,0,5.82,0
46,84.9,0,0,0,8.5,0
42.1,60.1,0,0,0,6.04,0
54,84.9,0,0,0,6.71,0
55.9,73.9,0.39,0,0,15.43,1
45,71.1,0,0,0,6.49,0
51.1,57.9,0.43,0,0,5.82,1
46,77,0,0,0,3.13,0
54,75,0,0,0,5.14,0
50,80.1,0,0,0,1.57,0
54,82,0.16,0,0,4.7,1
55.9,89.1,0,0,0,2.91,0
73.9,97,0,0,0,7.61,0
66,95,0,0,0,2.68,0
78.1,102.9,0,0,0,8.05,0
71.1,82,0.48,0,0,5.37,1
64.9,88,0,0,0,5.14,0
70,82,0.08,0,0,2.46,1
55.9,84,0.16,0,0,2.91,1
50,75,0,0,0,4.92,0
46,73,0,0,0,5.14,0
45,62.1,0,0,0,13.42,0
45,75.9,0,0,0,7.61,0
43,63,0.08,0,0,9.4,1
28,63,0,0,0,1.34,0
28.9,55.9,0,0,0,1.57,0
60.1,72,0,0,0,7.83,0
32,48,0,0,0,3.13,0
43,66,0.53,0,0,6.71,1
28,57.9,0,0,0,7.16,0
34,52,0,0,0,4.92,0
32,55,0,0,0,8.95,0
48,59,0.02,0,0,4.03,1
30.9,48.9,0,0,0,0,0
25,48,0,0,0,8.28,1
41,70,0,0,0,10.51,0
44.1,61,0.02,0,0,4.92,1
57.9,70,0.87,0,0,2.24,1
57,72,0.86,0,0,8.05,1
44.1,66,0.21,0,0,6.71,1
36,64.9,0,0,0,3.58,0
33.1,41,0.08,0,0,2.01,1
30.9,57.9,0,0,0,8.95,1
19.9,37,0,0,0,6.93,0
25,39.9,0,0,0,5.37,0
34,45,0,0,0,5.59,1
25,50,0,0,0,10.51,0
35.1,52,0,0,0,8.05,0
26.1,64,0,0,0,4.03,0
19,50,0,0,0,6.93,0
37,55,0,0,0,7.61,0
37.9,61,0,0,0,4.92,0
46.9,68,0.96,0,0,12.97,1
41,69.1,0,0,0,11.41,0
37.9,55,0,0,0,6.04,0
30.9,59,0,0,0,5.37,0
37.9,66.9,0,0,0,3.8,0
53.1,82.9,0,0,0,7.83,0
44.1,73.9,0,0,0,6.04,0
59,87.1,0.04,0,0,5.14,1
53.1,86,0,0,0,4.03,0
55.9,82,0,0,0,9.62,1
32,64,0,0,0,2.01,0
48.9,70,0.01,0,0,9.17,1
42.1,77,1.76,0,0,12.75,1
61,87.1,0,0,0,10.29,0
53.1,57,0.08,0,0,6.49,1
66,82,0.96,0,0,5.14,1
53.1,82,0,0,0,4.7,0
61,91,0,0,0,7.61,0
62.1,91.9,0,0,0,4.7,0
64,79,0.18,0,0,3.8,1
59,75,0.01,0,0,4.25,1
70,97,0.38,0,0,7.16,1
71.1,93,0.18,0,0,7.83,1
68,93.9,0,0,0,4.47,0
70,95,0,0,0,5.82,0
71.1,98.1,0,0,0,6.93,0
64,81,0,0,0,2.91,1
72,88,0,0,0,5.82,1
62.1,84,0,0,0,6.71,0
64,88,0,0,0,3.8,0
69.1,90,0.57,0,0,4.7,1
70,89.1,0,0,0,6.26,0
71.1,93,0,0,0,5.14,0
73.9,97,0,0,0,2.46,1
75.9,102,0.17,0,0,4.47,1
75.9,100.9,0,0,0,11.63,0
73.9,97,0.01,0,0,6.71,1
70,97,0,0,0,9.84,0
73.9,105.1,0.06,0,0,8.28,1
75,90,0.53,0,0,5.82,1
68,91,0,0,0,5.37,0
61,88,0,0,0,7.61,0
64.9,93,0,0,0,4.47,0
66.9,100.9,0,0,0,7.16,0
69.1,91,0,0,0,2.24,0
59,89.1,0,0,0,4.47,0
53.1,82,0,0,0,6.71,0
63,84.9,0,0,0,3.36,0
68,78.1,0.13,0,0,5.82,1
64,90,0,0,0,1.79,0
70,84,0.09,0,0,10.51,1
45,81,0,0,0,2.91,0
64,82.9,0,0,0,8.95,0
60.1,71.1,2.19,0,0,6.26,1
44.1,64.9,0,0,0,5.82,0
36,68,0,0,0,5.59,0
35.1,57.9,0,0,0,4.7,1
48.9,78.1,0,0,0,6.04,1
51.1,77,0,0,0,14.54,0
39,64,0,0,0,5.59,0
32,57,0,0,0,4.47,0
34,62.1,0.04,0,0,10.74,1
25,52,0,0,0,3.36,1
21,46,0,0,0,1.12,0
43,50,0,0,0,7.61,0
30.9,54,0,0,0,4.47,0
43,72,0,0,0,6.26,0
41,57.9,0,0,0,6.71,0
39,46.9,0,0,0,5.82,1
21,46,0,0,0,2.68,0
15.1,37,0,0,0,4.92,0
24.1,42.1,0.15,0,0,3.58,1
41,71.1,0,0,0,4.47,1
33.1,61,0,0,0,7.83,0
41,57.9,0,0,0,7.16,0
37,64.9,0,0,0,8.72,1
30,43,0.01,0,0,9.17,1
42.1,62.1,0.02,0,0,6.04,1
28.9,48.9,0,0,0,10.29,0
44.1,64,0,0,0,8.5,1
35.1,66,0.2,0,0,16.55,1
57,75,0.08,0,0,18.12,1
41,66,0,0,0,10.51,1
41,73,0,0,0,13.42,0
41,45,0.36,0,0,9.17,1
44.1,60.1,0.98,0,0,4.7,1
60.1,77,0.02,0,0,13.42,1
60.1,64.9,0.25,0,0,6.49,1
57,82.9,0,0,0,11.86,0
37,55,0,0,0,3.8,1
60.1,80.1,0,0,0,13.42,1
60.1,82,0,0,0,5.14,1
54,79,0,0,0,2.68,0
44.1,71.1,0,0,0,4.7,0
37,69.1,0,0,0,0.67,0
34,52,0,0,0,3.58,0
24.3,41,0,0,0,6.49,0
28.2,48.9,0.01,0,0,6.49,0
34,46.9,0.21,0,0,9.62,0
29.1,45,0,0,0,4.47,0
37.9,66,0,0,0,7.38,0
28.2,48,0,0,0,8.28,0
41,50,0.54,0,0,6.49,0
48.9,75.9,0,0,0,12.53,0
32,53.1,0,0,0,6.71,0
48.9,73.9,0,0,0,13.87,0
26.2,42.1,0.56,0,0,8.28,0
50,82,0.2,0,0,5.82,0
52,77,0,0,0,6.93,0
59,79,0.06,0,0,9.17,0
63,82,0,0,0,12.97,0
50,70,0.09,0,0,15.21,0
48.9,78.1,0,0,0,9.62,0
61,73.9,0.03,0,0,9.62,0
63,89.1,0.21,0,0,6.93,0
62.1,82,0,0,0,10.51,0
53.1,82.9,0,0,0,4.03,0
71.1,91,0.46,0,0,7.83,0
68,93,0,0,0,5.82,0
64,84.9,0,0,0,4.25,0
62.1,91,0,0,0,3.58,0
61,89.1,0,0,0,2.24,0
61,87.1,0,0,0,4.47,0
68,91,0,0,0,5.59,0
50,82,0,0,0,2.24,0
54,84.9,0,0,0,3.13,0
55,86,0,0,0,2.91,0
73.9,91.9,0.09,0,0,11.86,0
75,90,0,0,0,6.71,0
62.1,82.9,0,0,0,9.84,0
37.9,73,0,0,0,5.82,0
41,68,0.78,0,0,7.61,0
55,78.1,0,0,0,2.01,0
52,81,0,0,0,2.01,0
43,45,0.13,0,0,8.28,0
35.1,57.9,0,0,0,6.71,0
33.1,54,0,0,0,3.58,0
36,66.9,0,0,0,3.13,0
34,64,0.08,0,0,9.17,0
28.2,57,0,0,0,2.01,0
41,63,0,0,0,5.14,0
45,51.1,0,0,0,2.91,0
42.1,64,0,0,0,2.46,0
73.9,93.9,0,0,0,5.14,0
72,100.9,0,0,0,5.59,0
75.9,98.1,0,0,0,8.28,0
68,95,1.12,0,0,4.25,1
72,90,0.03,0,0,1.79,1
73.9,87.1,0.08,0,0,5.59,1
69.1,89.1,0.06,0,0,5.14,1
71.1,87.1,0,0,0,2.46,1
69.1,89.1,0,0,0,2.91,0
69.1,75,2.08,0,0,5.59,1
69.1,81,0.13,0,0,3.36,1
66.9,84,0,0,0,4.92,0
73,91.9,0,0,0,4.03,0
71.1,89.1,0.91,0,0,3.8,0
73,89.1,0.03,0,0,7.16,1
73.9,88,0,0,0,9.84,1
61,80.1,0,0,0,5.14,0
57,72,0,0,0,6.26,1
53.1,75,0,0,0,2.68,1
57,82,0,0,0,1.57,0
57.9,84,0,0,0,3.8,1
42.1,66.9,0,0,0,3.36,0
55.9,73,0.11,0,0,5.82,1
46,72,0,0,0,3.8,0
53.1,78.1,0.19,0,0,7.61,1
57,72,0.01,0,0,7.83,1
39.9,64.9,0.18,0,0,6.71,1
37,46,0.29,0,0,4.47,1
36,59,0,0,0,3.8,0
30.9,66.9,0,0,0,2.68,0
42.1,57.9,0.09,0,0,4.25,1
34,64.9,0,0,0,0.22,0
53.1,75.9,0,0,0,4.92,0
63,72,0.01,0,0,11.63,1
39,62.1,0,0,0,6.71,0
44.1,60.1,0.01,0,0,5.14,1
26.1,51.1,0,0,0,4.47,0
25,48.9,0,0,0,1.79,0
28.9,46,0.06,0.12,0.98,2.24,0
27,37.9,0,0,0,1.34,0
21.9,41,0,0,0,1.57,0
61,72,0.35,0,0,18.12,1
36,48,0.43,0,0,8.72,1
46.9,60.1,0,0,0,3.8,0
35.1,51.1,0.14,0,0,9.62,1
36,57.9,0.86,0,0,10.29,1
28,48.9,0,0,0,4.7,0
35.1,50,0.41,0,0,4.92,1
30.9,55,0,0,0,5.59,0
28.9,53.1,0,0,0,4.7,0
39.9,66.9,0,0,0,6.71,0
23,52,0,0,0,4.92,0
48.9,71.1,0.01,0,0,5.59,0
36,71.1,0,0,0,6.04,0
57.9,71.1,0.02,0,0,7.16,0
46.9,66.9,0.13,0,0,4.47,0
50,71.1,0,0,0,4.03,0
55,72,0.86,0,0,2.68,0
57,66,0,0,0,5.37,0
55.9,68,1.41,0,0,8.05,0
54,80.1,0,0,0,3.36,0
62.1,78.1,0.42,0,0,2.46,0
69.1,84.9,0,0,0,7.83,0
63,84.9,0,0,0,8.5,0
68,87.1,0.11,0,0,11.18,0
64,79,0,0,0,4.03,0
66.9,87.1,0.02,0,0,3.13,0
68,93.9,0.05,0,0,9.4,0
71.1,87.1,0,0,0,8.5,0
63,82,0,0,0,7.16,0
55,82.9,0,0,0,6.04,0
68,87.1,0.99,0,0,6.49,0
72,89.1,0,0,0,6.71,0
73,89.1,0.04,0,0,9.17,0
73.9,90,0,0,0,10.51,0
66.9,84,0.14,0,0,5.82,0
70,87.1,0,0,0,4.92,0
66.9,88,0,0,0,5.14,0
60.1,80.1,0,0,0,4.92,0
62.1,89.1,0,0,0,2.91,0
68,91,0,0,0,4.7,0
66,75.9,0.77,0,0,4.7,0
53.1,75.9,0,0,0,1.12,0
53.1,75,0,0,0,1.12,0
57,84.9,0,0,0,1.57,0
59,86,0,0,0,3.58,0
55.9,64.9,0.11,0,0,7.61,0
57.9,70,0.01,0,0,2.91,0
43,64.9,0,0,0,2.68,0
45,69.1,0,0,0,0.67,0
35.1,61,0,0,0,2.01,0
9.1,32,0.06,0.91,0,4.25,0
16.2,46.9,0,0,0,5.37,0
55.9,71.1,0.5,0,0,11.41,0
34,54,0,0,0,4.03,0
39.9,50,0.3,0,0,2.46,0
60.1,73,0,0,0,11.18,0
50,57,0.59,0,0,4.47,0
25.2,52,0,0,0,6.04,0
29.1,48,0,0,1.18,6.71,0
34,71.1,0.27,0,0,6.26,0
44.1,64.9,0,0,0,5.59,0
32,53.1,0,0,0,10.29,0
34,48.9,0.01,0,0,5.37,0
51.1,81,0,0,0,9.84,0
45,73,0,0,0,11.41,0
52,80.1,0,0,0,14.32,0
61,82,3.31,0,0,12.53,0
41,64,0,0,0,14.76,0
53.1,64.9,0.85,0,0,12.3,0
51.1,68,0,0,0,3.8,0
54,73,0.01,0,0,4.92,0
50,78.1,0,0,0,5.82,0
45,82.9,0,0,0,4.47,0
63,82,0,0,0,7.83,0
59,89.1,0,0,0,4.03,0
68,84.9,0.76,0,0,6.71,0
69.1,75,0.59,0,0,8.5,0
69.1,87.1,0,0,0,6.93,0
68,84,0,0,0,6.93,0
70,93,0,0,0,5.37,0
73,93.9,0,0,0,4.47,0
73,95,0.48,0,0,5.82,0
62.1,82,0,0,0,8.05,0
66.9,96.1,0.05,0,0,3.8,0
68,88,0,0,0,7.61,0
69.1,88,0.01,0,0,6.71,0
69.1,82,0.27,0,0,3.8,0
73,90,0.02,0,0,9.17,0
70,77,1.12,0,0,5.82,0
72,91.9,0.05,0,0,2.91,0
71.1,93,0.2,0,0,6.71,0
69.1,93.9,0.46,0,0,6.49,0
69.1,90,0,0,0,4.7,0
66.9,84.9,0.08,0,0,3.58,0
73,91,0,0,0,9.62,0
71.1,87.1,0.01,0,0,9.4,0
73,77,1.85,0,0,15.88,0
70,82.9,0,0,0,4.92,0
66.9,88,0,0,0,4.47,0
62.1,81,0,0,0,4.03,0
60.1,82,0,0,0,2.01,0
64,86,0,0,0,2.68,0
64,75,0.01,0,0,4.92,0
34,62.1,0,0,0,3.8,0
46.9,55,0.01,0,0,8.5,0
39,61,0,0,0,5.82,0
37,64.9,0.04,0,0,7.38,0
48.9,73,0,0,0,1.34,0
34,54,0,0,0,5.59,0
39,63,0.01,0,0,9.84,0
46.9,68,0,0,0,5.59,0
31.1,43,0,0,0,4.7,0
29.1,51.1,0,0,0,2.24,0
34,53.1,0,0,0,6.71,0
29.1,54,0.02,0,0,5.14,0
51.1,71.1,0,0,0,7.38,0
17.2,31.1,0,0,0,5.82,0
21.2,44.1,0,0,0,8.28,0
27.1,57.9,0,0,0,5.37,0
46.9,77,0,0,0,7.16,0
33.1,46,0,0,0,6.04,0
27,43,0,0,0,3.8,0
39,57,0,0,0,10.07,0
39,42.1,1.02,0,0,5.14,0
42.1,62.1,0,0,0,5.82,0
34,50,0.01,0,0,4.92,0
23,50,0,0,0,2.46,0
44.1,66,0,0,0,2.91,0
50,75,0,0,0,10.29,0
39.9,59,0,0,0,4.92,0
33.1,55,0,0,0,6.26,0
44.1,59,0.58,0,0,6.26,0
32,71.1,0,0,0,7.61,0
30,57,0,0,0,6.93,0
64,87.1,0,0,0,3.13,0
75,98.1,0.18,0,0,4.92,0
73.9,91.9,0,0,0,8.05,0
66.9,84.9,0,0,0,4.47,0
64,91.9,0,0,0,1.34,0
69.1,73.9,0,0,0,6.71,0
52,73,0.13,0,0,7.38,0
51.1,78.1,0,0,0,0.22,0
44.1,54,0.27,0,0,4.47,0
44.1,71.1,0,0,0,3.58,0
26.2,45,0,0,0,3.13,0
25.2,57,0,0,0,5.37,0
23.2,43,0,0,0,6.93,0
24.3,50,0,0,0,4.03,0
27.1,59,0,0,0,0.67,0
55,66.9,0.03,0,0,6.71,0
33.1,42.1,0.05,0,0,8.05,0
28.2,48,0.47,0,0,2.91,0
25.2,44.1,0,0,0,2.24,0
23.2,52,0,0,0,2.91,0
35.1,60.1,0,0,0,6.49,0
31.1,48.9,0,0,0,3.36,0
43,66.9,0,0,0,8.28,0
29.1,46.9,0,0,0,6.49,0
24.3,53.1,0.03,0,0,1.12,0
43,63,1.94,0,0,7.16,0
35.1,53.1,0,0,0,1.79,0
16.2,61,0.13,0,0,13.65,0
39,45,0.57,0,0,3.58,0
39,57.9,0,0,0,5.82,0
30.2,64,0,0,0,8.05,0
22.1,52,0,0,0,8.5,0
37.9,60.1,0,0,0,5.14,0
24.3,55,0,0,0,5.82,0
28.2,55,0,0,0,3.36,0
39,66,0,0,0,3.36,0
34,73.9,0,0,0,5.37,0
44.1,79,0,0,0,5.14,0
55.9,66,0.49,0,0,5.59,0
57,82,0,0,0,11.63,0
55,66.9,0.01,0,0,6.71,0
45,68,0.07,0,0,3.36,0
33.1,54,0,0,0,7.61,0
46,53.1,0.56,0,0,8.95,0
46.9,82.9,0,0,0,5.82,0
48.9,79,0,0,0,6.71,0
54,66.9,0,0,0,6.93,0
64.9,77,1.12,0,0,10.96,0
62.1,79,0,0,0,13.65,0
48.9,82.9,0,0,0,5.59,0
60.1,86,0,0,0,2.24,0
54,82,0,0,0,2.46,0
61,87.1,0.09,0,0,8.72,0
63,73.9,0,0,0,4.7,0
70,96.1,0,0,0,7.16,0
70,97,0.27,0,0,6.04,0
68,91,0.64,0,0,2.68,0
69.1,84.9,0,0,0,8.5,0
73.9,98.1,0,0,0,11.86,0
71.1,88,0.66,0,0,5.14,0
75,98.1,0,0,0,9.62,0
68,81,0.93,0,0,4.03,0
66,82.9,0,0,0,3.36,0
69.1,90,0,0,0,3.13,0
72,87.1,0.45,0,0,7.61,0
70,88,0,0,0,6.49,0
68,88,0,0,0,2.46,0
69.1,86,0,0,0,4.47,0
70,87.1,2.45,0,0,4.92,0
57.9,86,0,0,0,3.36,0
55,75.9,0,0,0,3.8,0
64.9,84.9,0.09,0,0,7.83,0
46.9,73,0,0,0,7.38,0
45,75.9,0,0,0,8.05,0
60.1,82.9,0,0,0,5.14,0
57,75,0.62,0,0,6.71,0
42.1,62.1,0,0,0,5.14,0
50,75.9,0,0,0,3.13,0
26.2,48,0,0,0,3.58,0
34,66,0.64,0,0,4.7,0
60.1,72,0.01,0,0,13.2,0
44.1,57,0,0,0,4.25,0
26.2,48,0,0,0,5.37,0
28.2,60.1,0,0,0,1.57,0
31.1,51.1,0,0,0,1.12,0
31.1,62.1,0,0,0,3.13,0
48,61,0.01,0,0,6.71,0
41,55,0.72,0,0,6.71,0
32,55.9,0,0,0,5.37,0
26.2,55,0,0,0,4.7,0
23.2,46.9,0.02,0,0,4.7,0
32,57,0,0,0,6.71,0
26.2,60.1,0,0,0,8.28,0
45,62.1,0.4,0,0,6.04,0
36,45,0.17,0,0,10.96,0
15.3,29.1,0,0,0,9.4,0
26.2,37,0,0,1.18,6.93,0
35.1,43,0.07,0,0,5.37,0
24.3,37,0,0,0,5.82,0
59,75.9,0.11,0,0,5.14,0
46.9,82,0,0,0,6.04,0
70,91.9,0.01,0,0,8.95,0
70,78.1,0.53,0,0,5.37,0
73.9,91,0,0,0,7.83,0
71.1,96.1,0.5,0,0,2.91,0
66,80.1,0,0,0,5.14,0
69.1,90,0.46,0,0,6.26,0
70,88,0.01,0,0,3.13,0
70,89.1,0,0,0,3.8,0
70,88,0,0,0,5.59,0
64.9,84.9,0,0,0,3.58,0
52,73.9,0,0,0,5.82,0
63,73.9,0.86,0,0,6.93,0
60.1,77,0,0,0,6.49,0
39.9,63,0,0,0,3.8,0
22.1,52,0,0,0,4.7,0
46.9,66,0,0,0,6.71,0
39,73.9,0,0,0,10.07,0
61,82.9,0,0,0,16.33,0
61,79,1.23,0,0,6.04,0
63,73,0.76,0,0,8.5,0
46,73,0,0,0,2.91,0
64.9,84.9,0.03,0,0,9.4,0
55,77,0,0,0,5.37,0
62.1,88,0,0,0,4.03,0
57,71.1,0.24,0,0,6.49,0
54,82.9,0,0,0,4.7,0
66,87.1,0,0,0,4.03,0
68,90,0.08,0,0,6.93,0
70,93,0.08,0,0,6.49,0
73,100,0,0,0,4.03,0
71.1,96.1,0.01,0,0,9.4,0
69.1,91.9,1.26,0,0,4.7,0
69.1,78.1,0.14,0,0,4.03,0
70,89.1,0,0,0,8.05,0
72,93.9,0,0,0,5.82,0
71.1,88,0.65,0,0,6.49,0
70,88,0,0,0,9.62,0
72,93,1.57,0,0,5.14,0
72,93,0,0,0,4.47,0
73,93,0.78,0,0,6.04,0
72,82,0.76,0,0,5.59,0
68,86,0,0,0,5.14,0
75,91,0,0,0,4.47,0
71.1,91,0,0,0,3.8,0
64.9,93,0,0,0,1.57,0
70,75,0.02,0,0,5.82,0
66,84.9,0,0,0,7.38,0
71.1,84.9,0,0,0,7.38,0
72,90,0,0,0,4.25,0
66,87.1,0,0,0,4.7,0
72,91.9,0.89,0,0,3.58,0
69.1,82,0,0,0,6.26,0
63,86,0,0,0,2.46,0
66.9,91,0,0,0,1.12,0
66,81,0,0,0,6.04,0
71.1,87.1,0,0,0,4.03,0
70,89.1,0.04,0,0,2.01,0
48,78.1,0,0,0,1.12,0
50,82,0,0,0,2.01,0
62.1,87.1,0,0,0,1.57,0
64.9,79,0,0,0,6.26,0
57,82.9,0,0,0,2.24,0
60.1,82,0,0,0,8.5,0
52,72,0,0,0,4.47,0
52,77,0,0,0,2.46,0
33.1,57.9,0,0,0,3.36,0
51.1,71.1,0,0,0,4.25,0
50,63,0.47,0,0,10.51,0
57,73.9,0.05,0,0,6.71,0
59,64.9,0.53,0,0,4.92,0
63,73.9,0,0,0,2.46,0
46.9,55,1.45,0,0,8.05,0
46,68,0,0,0,2.01,0
55.9,73,1.86,0,0,6.49,0
32,60.1,0,0,0,1.34,0
29.1,46.9,0,0,0,2.01,0
45,60.1,0.74,0,0,6.93,0
53.1,75,0,0,0,4.47,0
64,75.9,0,0,0,9.4,0
53.1,73.9,0.1,0,0,4.25,0
43,51.1,0,0,0,2.68,0
42.1,61,0,0,0,6.93,0
29.1,46.9,0.01,0,0,5.14,0
37.9,57,0,0,0,2.46,0
39.9,55,0,0,0,14.09,0
24.3,52,0,0,0,3.8,0
46,73,0,0,0,9.17,0
35.1,64,0.1,0,0,8.5,0
46.9,78.1,0,0,0,7.16,0
51.1,78.1,0,0,0,11.18,0
43,60.1,0.03,0,0,7.61,0
54,78.1,0,0,0,14.09,0
54,75,0.08,0,0,6.71,0
45,66.9,0,0,0,3.36,0
55,77,0,0,0,11.41,0
44.1,62.1,0,0,0,7.61,0
37.9,66,0,0,0,8.05,0
37,72,0,0,0,4.25,0
42.1,84,0,0,0,2.68,0
53.1,88,0,0,0,3.8,0
53.1,81,0,0,0,10.74,0
64,87.1,0.52,0,0,7.83,0
60.1,78.1,0,0,0,5.82,0
48.9,61,0.68,0,0,4.7,0
64.9,84,0,0,0,5.37,0
64,81,0.56,0,0,3.58,0
42.1,73,0,0,0,2.46,0
50,82.9,0,0,0,4.47,0
68,88,0,0,0,7.38,0
70,88,0,0,0,0.89,0
69.1,91.9,0.61,0,0,4.25,0
57.9,81,0,0,0,4.92,0
69.1,91.9,0,0,0,8.05,0
59,90,0,0,0,4.03,0
55.9,84,0,0,0,2.24,0
69.1,88,0.01,0,0,4.03,0
72,91,0,0,0,6.04,0
71.1,93.9,0.25,0,0,6.04,0
69.1,88,0,0,0,2.01,0
70,91,0.37,0,0,3.13,0
73,95,0,0,0,3.36,0
73,93,0,0,0,7.83,0
73.9,95,0.03,0,0,4.92,0
73,88,0,0,0,8.72,0
69.1,87.1,1.02,0,0,6.71,0
75.9,93.9,0,0,0,6.04,0
75,95,0,0,0,7.61,0
66.9,87.1,0,0,0,2.91,0
57,82,0,0,0,4.7,0
46.9,78.1,0,0,0,5.59,0
55.9,82.9,0.01,0,0,5.14,0
33.1,66.9,0,0,0,2.91,0
27.1,57.9,0,0,0,2.46,0
33.1,54,0,0,0,2.91,0
42.1,59,0.41,0,0,4.47,0
37.9,52,0,0,0,4.25,0
20.1,45,0,0,0,1.79,0
23.2,46,0,0,0,2.91,0
39.9,57,0,0,0,6.04,0
50,75.9,0.01,0,0,7.38,0
45,70,0,0,0,6.49,0
46,59,0.09,0,0,2.91,0
34,48.9,0.06,0,0,4.7,0
69.1,88,0,0,0,9.17,0
72,89.1,0,0,0,10.07,0
70,86,0.02,0,0,10.51,0
71.1,90,0.02,0,0,4.47,0
75.9,100.9,0,0,0,10.74,0
75,93.9,0.21,0,0,7.61,0
60.1,88,0,0,0,2.91,0
68,93.9,0,0,0,3.8,0
68,91.9,0,0,0,7.16,0
73.9,91.9,0.04,0,0,10.96,0
68,78.1,1.5,0,0,5.82,0
73.9,91.9,0,0,0,4.03,0
73,91.9,0.05,0,0,2.91,0
59,84,0,0,0,1.79,0
69.1,87.1,0.01,0,0,7.16,0
64,90,0.06,0,0,8.05,0
51.1,77,0,0,0,2.68,0
63,79,0.63,0,0,10.74,0
61,84,0,0,0,6.71,0
64,82.9,0,0,0,6.04,0
64.9,82.9,0,0,0,6.71,0
41,69.1,0,0,0,4.7,0
39.9,48.9,0,0,0,2.46,0
26.2,55,0,0,0,4.92,0
39.9,66.9,0.3,0,0,9.84,1
28,53.1,0.14,0,0,8.5,1
21.9,39.9,0,0,0,4.47,0
23,39,0,0,0,4.92,0
48.9,73.9,0,0,0,9.62,0
53.1,82,0,0,0,10.74,0
43,73,0,0,0,3.58,0
66,84.9,0.12,0,0,3.8,1
68,91,0,0,0,5.37,1
70,96.1,2.05,0,0,6.49,1
71.1,91,0.08,0,0,5.82,1
69.1,93.9,1.18,0,0,5.59,1
69.1,91.9,0,0,0,4.47,0
69.1,91.9,0,0,0,3.8,0
70,96.1,0,0,0,4.7,0
64,88,0.04,0,0,6.49,1
55.9,75,0.37,0,0,5.37,1
46.9,62.1,0,0,0,12.3,0
35.1,66,0,0,0,2.01,0
43,63,0,0,0,9.4,1
32,54,0,0,0,2.68,0
30,57.9,0,0,0,1.34,0
46.9,55.9,0.15,0,0,5.14,1
24.1,44.1,0,0,0,4.47,0
34,39,0.55,0,0,7.61,1
30,46.9,0,0,0,5.82,0
24.1,55,0,0,0,2.01,0
28.9,61,0,0,0,3.13,0
37.9,64.9,0,0,0,14.09,0
28,50,0.01,0,0,5.14,1
46.9,61,0.47,0,0,8.72,1
26.1,55.9,0,0,0,8.5,0
46,59,1.02,0,0,5.59,1
28,52,0,0,0,5.14,0
37,64,0,0,0,5.82,0
37,75.9,0,0,0,6.93,0
46.9,63,0.01,0,0,7.83,1
33.1,66.9,0,0,0,6.71,0
46.9,77,0,0,0,13.42,0
45,73,0.39,0,0,7.16,0
46.9,64,0,0,0,8.72,0
51.1,71.1,0,0,0,3.58,0
57,75.9,0.06,0,0,15.21,1
37.9,61,0,0,0,8.5,0
46,86,0,0,0,5.14,0
48,73.9,0.43,0,0,4.25,1
63,79,1.16,0,0,5.82,1
55.9,71.1,0.68,0,0,8.72,1
48,78.1,0,0,0,10.96,0
57,81,0,0,0,13.2,0
63,82,0.43,0,0,10.29,1
26.1,48,0,0,0,4.92,0
32,50,0,0,0,2.68,0
30,48.9,0,0,0,2.91,0
21.9,48.9,0,0,0,5.82,0
27,45,0,0,0,7.83,0
15.1,39,0,0,0,6.04,0
37.9,50,0.59,0,0,6.71,1
30,55,0,0,0,6.93,0
44.1,80.1,0,0,0,4.47,0
37.9,66,2.14,0,0,8.05,1
61,86,0,0,0,5.14,0
32,55.9,0,0,0,0.89,0
48.9,84,0,0,0,5.59,0
46.9,87.1,0,0,0,6.49,0
59,91.9,0,0,0,6.26,0
46.9,66.9,0,0,0,13.42,0
51.1,73,0,0,0,8.72,0
44.1,75,0,0,0,4.25,0
46.9,82.9,0,0,0,4.92,0
54,88,0,0,0,3.36,0
64,91,0,0,0,6.49,0
60.1,84,0.22,0,0,4.7,1
68,91.9,0.39,0,0,5.59,1
69.1,87.1,0,0,0,6.49,0
57.9,82.9,0.03,0,0,4.25,1
64,89.1,0.06,0,0,3.58,1
63,96.1,0,0,0,3.13,0
64.9,82.9,0.2,0,0,3.13,1
72,95,0.11,0,0,5.82,1
70,95,0.82,0,0,10.07,1
72,98.1,0.03,0,0,3.8,1
75,104,0.05,0,0,4.92,1
70,98.1,0,0,0,5.14,0
71.1,95,0,0,0,4.7,0
63,91,0,0,0,6.71,0
70,82.9,1.91,0,0,6.49,1
57,75.9,0,0,0,8.05,0
64.9,91,0,0,0,4.47,0
61,82,0,0,0,8.05,0
68,87.1,0,0,0,4.7,0
51.1,69.1,0,0,0,7.61,0
59,70,0.08,0,0,11.63,1
39,66,0.32,0,0,11.41,1
35.1,70,0,0,0,1.57,0
32,57,0,0,0,2.68,0
39.9,71.1,0,0,0,5.37,0
55.9,79,0,0,0,8.72,0
35.1,53.1,0.24,0,0,10.07,1
28.9,53.1,0.02,0,0,3.13,1
36,64,0.04,0,0,6.04,1
25,35.1,0,0,0,11.18,0
39.9,69.1,0,0,0,7.83,0
28.9,48,0,0,0,4.7,0
26.1,52,0,0,0,2.91,0
48,75.9,0,0,0,10.07,0
35.1,59,0,0,0,4.7,0
42.1,66.9,0,0,0,9.17,0
53.1,79,0.57,0,0,10.51,1
52,75,0,0,0,6.26,0
72,93.9,0,0,0,10.51,0
73.9,93,0,0,0,8.5,0
68,90,0,0,0,5.59,1
63,91,0,0,0,5.14,0
66.9,89.1,0.01,0,0,3.8,1
62.1,95,0,0,0,5.14,0
72,87.1,0.03,0,0,3.58,1
66,87.1,0,0,0,6.26,0
64.9,88,0,0,0,4.47,0
63,86,0,0,0,1.57,0
70,93,0,0,0,2.91,0
73,93.9,0,0,0,3.13,0
71.1,95,0.1,0,0,4.25,1
72,96.1,0,0,0,2.46,0
73,96.1,0,0,0,3.8,0
64,89.1,0,0,0,3.8,0
64.9,86,0,0,0,5.14,0
66,91,0.36,0,0,3.58,1
66.9,86,0,0,0,3.13,0
69.1,88,0,0,0,6.04,1
72,81,0.07,0,0,5.82,1
70,91,0.64,0,0,4.47,0
64.9,86,0,0,0,4.47,0
69.1,89.1,0,0,0,2.01,0
66.9,90,0,0,0,3.13,0
73,91,0,0,0,12.3,0
60.1,80.1,0,0,0,4.92,1
59,75.9,0,0,0,10.29,0
64,82,0,0,0,2.68,0
62.1,81,0.01,0,0,2.68,1
46.9,70,0,0,0,2.91,0
48.9,79,0,0,0,1.79,0
55.9,71.1,0,0,0,6.71,0
52,73.9,0,0,0,6.04,0
51.1,62.1,0.3,0,0,9.62,1
39,60.1,0,0,0,6.26,0
37.9,77,0,0,0,1.79,0
37,66,0,0,0,1.57,0
28,57,0,0,0,6.49,0
28,44.1,0.05,0.39,0,7.83,1
30.9,54,0.18,0,0,8.05,1
26.1,54,0,0,0,3.8,0
39,68,0,0,0,3.13,0
39,50,0.04,0,0,7.61,1
28,52,0,0,0,4.7,1
21.9,48,0,0,0,3.8,0
57,69.1,1.4,0,0,10.29,1
28,57,0,0,0,2.24,0
44.1,61,0.02,0,0,7.16,1
35.1,60.1,0.6,0,0,9.84,1
37.9,66.9,0,0,0,7.38,1
37.9,66,0.31,0,0,3.8,1
57,73.9,0.23,0,0,12.75,1
43,55.9,0.62,0,0,4.03,1
30,48,0,0,0,3.58,0
21.9,44.1,0,0,0,7.61,0
32,41,0,0,0,10.51,1
12.9,35.1,0,0,2.01,4.7,0
21.9,48.9,0,0,0,5.82,0
36,57,0,0,0,5.59,1
19,34,0,0,0,6.04,0
30.9,71.1,0,0,0,6.71,0
41,68,0,0,0,6.93,0
30.9,50,0.01,0,0,10.96,1
25,55.9,0,0,0,3.8,0
55,84,0,0,0,8.72,0
46.9,51.1,0.41,0,0,3.8,1
45,75.9,0.64,0,0,10.07,1
30.9,66.9,0,0,0,3.36,0
41,57.9,0,0,0,8.28,0
48,71.1,0.46,0,0,11.18,1
46.9,64.9,0,0,0,8.28,0
52,89.1,0,0,0,6.93,0
66.9,87.1,0.29,0,0,14.54,1
66,84,0.1,0,0,9.4,1
63,80.1,0,0,0,3.36,0
44.1,79,0,0,0,7.61,0
60.1,82,0,0,0,6.71,0
68,86,0.65,0,0,5.82,1
64.9,80.1,0.13,0,0,7.38,1
66,93.9,0.82,0,0,7.16,1
66.9,91,0,0,0,6.04,0
64,95,0,0,0,2.24,0
63,91.9,0,0,0,4.03,0
70,82,0.03,0,0,2.91,1
64,91,0,0,0,2.68,0
73.9,91,0,0,0,8.95,1
71.1,86,0.06,0,0,4.03,1
68,88,0,0,0,3.13,0
66.9,96.1,0,0,0,4.92,1
69.1,95,0,0,0,6.71,1
73,91.9,0,0,0,5.82,0
72,99,0,0,0,6.71,0
72,96.1,0,0,0,7.61,0
61,79,0,0,0,9.4,0
57,79,0,0,0,8.5,0
57,89.1,0,0,0,3.36,0
60.1,87.1,0,0,0,3.13,0
66.9,79,0.05,0,0,4.7,1
62.1,78.1,0,0,0,6.93,0
43,57.9,0,0,0,8.5,0
57,75,0.13,0,0,10.51,0
39.9,66,0.18,0,0,8.28,0
35.1,73.9,0,0,0,9.17,0
33.1,68,0,0,0,4.7,0
52,75.9,0,0,0,7.61,0
44.1,77,0,0,0,9.62,0
48.9,68,0,0,0,6.71,0
57.9,82,0,0,0,7.61,0
57,81,0,0,0,7.83,0
68,87.1,0,0,0,8.05,0
64.9,89.1,0,0,0,8.05,0
66.9,82,0.15,0,0,3.8,0
60.1,78.1,0.01,0,0,3.58,0
71.1,90,0,0,0,8.05,0
70,88,0.99,0,0,8.28,0
60.1,88,0,0,0,3.8,0
69.1,90,0.79,0,0,6.04,0
70,91,0,0,0,6.26,0
73,93.9,0,0,0,4.92,0
73.9,93,0.02,0,0,7.61,0
69.1,95,0,0,0,6.26,0
64,89.1,0,0,0,2.01,0
64.9,88,0,0,0,3.36,0
64.9,84,0,0,0,6.49,0
60.1,87.1,0,0,0,4.25,0
60.1,86,0,0,0,2.01,0
66.9,77,1.75,0,0,2.24,0
69.1,91,0,0,0,0.45,0
68,91.9,0,0,0,2.68,0
63,77,0,0,0,9.17,0
29.1,55.9,0,0,0,3.8,0
29.1,60.1,0,0,0,1.12,0
41,57.9,0,0,0,1.34,0
62.1,75,0.04,0,0,10.74,0
51.1,66,0.47,0,0,4.47,0
32,52,0,0,0,2.24,0
29.1,43,0,0,0,4.7,0
39.9,46.9,0.04,0,0,4.03,0
29.1,42.1,0.13,0,0,4.47,0
39.9,52,0,0,0,4.92,0
34,45,0,0,0,2.01,0
48.9,60.1,0,0,0,8.28,0
26.2,48,0,0,0,2.01,0
24.3,39.9,0,0,0,7.38,0
23.2,35.1,0.33,0.2,0,4.03,0
32,66,0,0,0,6.71,0
64,75.9,0.04,0,0,9.84,0
53.1,69.1,0.09,0,0,14.32,0
64,84.9,0.24,0,0,5.59,0
59,77,0.18,0,0,7.83,0
64.9,75.9,1.95,0,0,5.59,0
71.1,82,0.04,0,0,8.72,0
71.1,84.9,0,0,0,6.26,0
71.1,78.1,1.25,0,0,4.7,0
73,95,0.42,0,0,6.71,0
73,93,0.06,0,0,7.61,0
72,95,0,0,0,4.47,0
77,96.1,0,0,0,8.72,0
75.9,95,0,0,0,2.01,0
73.9,96.1,0,0,0,7.16,0
72,96.1,0.13,0,0,6.93,0
43,75,0.22,0,0,11.41,0
29.1,53.1,0,0,0,2.91,0
46.9,60.1,0.04,0,0,4.92,0
36,60.1,0,0,0,2.91,0
20.1,32,0.6,0.51,0,9.62,0
9.1,31.1,0,0,1.18,2.46,0
57.9,79,0.42,0,0,10.74,0
48.9,75,0,0,0,6.04,0
60.1,77,0,0,0,11.41,0
43,71.1,0,0,0,4.7,0
57,82.9,0.45,0,0,3.8,0
54,61,0.07,0,0,7.61,0
73,91,0,0,0,8.95,0
70,90,0,0,0,4.47,0
71.1,93,0,0,0,7.16,0
73,81,0.73,0,0,6.26,0
73,88,0.21,0,0,3.8,0
75,98.1,0.01,0,0,7.38,0
71.1,93,0,0,0,3.13,0
71.1,84,0,0,0,6.04,0
68,82.9,0,0,0,8.05,0
51.1,71.1,0,0,0,8.95,0
63,82.9,0,0,0,6.71,0
73.9,84,0.02,0,0,8.28,0
42.1,64,0,0,0,5.14,0
39,69.1,0,0,0,1.79,0
51.1,70,0,0,0,2.46,0
53.1,75.9,0,0,0,4.7,0
28.2,46,0,0,0,5.14,0
43,52,0,0,0,8.72,0
34,57,0,0,0,2.91,0
33.1,66.9,0,0,0,11.41,0
26.2,61,0,0,0,1.34,0
39.9,70,0,0,0,2.46,0
70,95,0,0,0,2.46,0
64,93,0,0,0,3.13,0
71.1,95,0,0,0,4.92,0
73.9,91.9,0,0,0,11.18,0
72,97,0,0,0,8.5,1
70,99,1.38,0,0,9.17,1
70,93.9,0.06,0,0,5.82,1
71.1,89.1,0,0,0,2.46,0
72,91,0,0,0,7.61,0
66,89.1,0,0,0,2.46,0
46.9,64,0,0,0,6.71,0
62.1,66.9,0.32,0,0,8.05,1
54,77,0,0,0,10.74,0
34,54,0.87,0,0,5.37,1
34,55.9,0.27,0,0,3.13,1
43,68,0,0,0,8.95,0
55,64.9,0.25,0,0,9.62,1
45,68,0,0,0,7.61,1
37.9,53.1,0,0,0,6.49,0
33.1,54,0.71,0.91,0,10.51,1
42.1,73,0,0,0,8.28,0
53.1,77,0.03,0,0,5.82,1
55.9,82.9,0,0,0,6.04,0
59,75.9,0.27,0,0,6.26,1
39.9,63,0.05,0,0,6.93,1
55,80.1,0.24,0,0,5.82,1
48,62.1,0.82,0,0,8.28,1
66,86,0,0,0,6.93,0
57,73.9,0.04,0,0,4.47,1
54,81,0,0,0,1.12,0
57,84,0,0,0,2.24,0
71.1,84,1.06,0,0,7.38,1
57,79,0,0,0,6.71,1
69.1,93.9,0,0,0,3.13,0
61,81,0,0,0,6.93,0
71.1,105.1,0,0,0,5.82,1
72,102,0,0,0,6.26,0
69.1,82.9,0,0,0,4.03,1
73.9,91.9,0,0,0,4.47,0
73.9,96.1,0,0,0,7.38,0
75,98.1,0,0,0,8.5,0
72,88,1.1,0,0,2.01,1
75,91.9,0,0,0,6.71,0
73.9,91.9,0,0,0,8.95,1
66.9,90,0,0,0,2.24,0
71.1,88,0,0,0,4.25,1
69.1,82,0,0,0,1.57,1
70,88,0,0,0,3.13,1
71.1,91.9,0,0,0,6.49,0
55,78.1,0,0,0,2.46,0
53.1,79,0,0,0,3.36,0
62.1,82,0.72,0,0,3.36,1
68,81,1.7,0,0,9.17,1
53.1,75.9,0,0,0,1.34,0
55,82,0,0,0,2.91,0
60.1,68,0.99,0,0,4.03,1
72,86,0,0,0,4.92,0
46.9,52,0.38,0,0,8.05,1
54,72,0,0,0,4.03,0
44.1,73,0,0,0,3.36,0
48,79,0,0,0,5.59,0
46,72,0,0,0,2.68,0
41,68,0,0,0,0.89,0
42.1,51.1,0.07,0,0,12.75,1
34,61,0,0,0,2.68,0
30.9,64.9,0,0,0,1.12,0
36,73.9,0,0,0,2.68,0
39,75,0,0,0,4.47,0
52,73.9,0,0,0,6.93,0
33.1,51.1,0,0,0,7.61,0
39,55,0,0,0,4.47,0
34,55.9,0,0,0,7.61,0
34,61,0,0,0,3.58,0
25,55,0,0,0,1.34,0
45,55.9,0.05,0,0,3.13,1
51.1,72,0.02,0,0,5.59,1
50,64.9,0,0,0,6.93,0
39,50,0.24,0,0,9.17,1
32,57.9,0,0,0,1.57,0
55,62.1,0.18,0,0,7.83,1
32,50,0,0,0,7.38,0
37,48.9,1.41,0,0,9.17,1
39.9,48.9,0.24,0,0,3.58,1
28.9,45,0,0,0,1.79,1
28,55.9,0,0,0,0.89,0
35.1,68,0,0,0,1.79,0
46,64.9,0,0,0,4.47,0
55,75,0,0,0,8.05,0
57.9,69.1,0,0,0,6.04,1
33.1,51.1,1.41,0.71,0,8.72,1
25,43,0,0,0,5.37,0
18,42.1,0,0,0,4.25,0
21,36,0,0,0,6.93,0
44.1,73,0,0,0,8.95,0
39,60.1,0,0,0,5.82,0
42.1,50,0.23,0,0,3.58,1
25,54,0,0,0,4.25,0
26.1,48,0,0,0,3.58,0
32,66.9,0,0,0,3.36,0
37.9,43,0.28,0,0,6.49,0
30.9,46,0,0,0,7.38,1
34,43,0.73,0,0,7.61,1
34,52,0,0,0,6.04,0
28,57.9,0,0,0,2.46,0
35.1,60.1,0,0,0,4.7,0
39,48,0.72,0,0,10.51,0
52,78.1,0,0,0,9.84,0
63,80.1,1.04,0,0,12.3,0
52,73.9,0,0,0,3.8,0
62.1,79,0,0,0,8.95,0
35.1,61,0.01,0,0,10.51,0
57,62.1,0.01,0,0,9.84,0
52,72,0,0,0,5.82,0
44.1,64.9,0,0,0,3.36,0
39,70,0,0,0,4.7,0
69.1,82.9,0.01,0,0,9.17,0
48,73,0,0,0,2.01,0
64,84.9,0,0,0,9.17,0
64,82.9,0.45,0,0,5.59,0
66,77,0.38,0,0,8.5,0
57,84.9,0,0,0,4.47,0
69.1,82,0,0,0,6.71,0
69.1,91.9,0.29,0,0,9.4,0
72,89.1,0,0,0,7.61,0
73,88,0.01,0,0,6.49,0
70,77,0.05,0,0,4.25,0
69.1,90,0,0,0,2.24,0
68,88,0.13,0,0,4.25,0
69.1,87.1,0.03,0,0,2.24,0
70,87.1,0,0,0,4.92,0
70,91,2.3,0,0,5.82,0
66,84,0,0,0,4.25,0
72,91,0,0,0,3.8,0
73,93.9,0.08,0,0,6.71,0
59,75.9,0,0,0,5.37,0
59,71.1,0,0,0,4.25,0
64,73,0.19,0,0,7.38,0
68,82.9,0,0,0,1.34,0
70,82.9,0,0,0,3.58,0
64.9,88,0,0,0,2.91,0
64,82,0,0,0,4.92,0
52,75,0,0,0,3.36,0
51.1,75.9,0,0,0,1.79,0
54,62.1,0.19,0,0,9.84,0
35.1,59,0,0,0,4.25,0
29.1,59,0,0,0,5.14,0
57.9,75.9,0,0,0,8.72,0
60.1,73,1.23,0,0,12.53,0
37,57,0,0,0,5.14,0
37.9,72,0,0,0,5.37,0
32,59,0,0,0,1.79,0
50,69.1,0,0,0,3.13,0
46.9,71.1,0.03,0,0,5.37,0
18.1,43,0,0,0,2.01,0
37,66,0.83,0,0,8.05,0
30.2,50,0.71,0,0,6.26,0
27.1,48,0,0,0,3.58,0
64.9,79,0,0,0,13.87,0
34,54,0.03,0,0,4.92,0
64,78.1,0.28,0,0,14.09,0
26.2,52,0,0,0,1.12,0
25.2,59,0,0,0,1.12,0
37,62.1,0,0,0,4.92,0
29.1,55.9,0,0,0,9.17,0
16.2,37.9,0,0,0,4.7,0
18.1,33.1,0.18,1.18,0,8.28,0
14.2,27.1,0,0.2,1.18,4.03,0
7.2,37.9,0,0,1.18,1.79,0
41,64,0,0,0,8.05,0
37.9,39.9,0.48,0,0,7.61,0
31.1,42.1,0,0,0,3.58,0
35.1,52,0,0,0,2.91,0
35.1,43,0.08,0,0,2.91,0
23.2,30.2,0.64,3.31,0,10.96,0
41,73,0.4,0,0,11.41,0
36,64,0,0,0,2.01,0
29.1,53.1,0,0,0,3.13,0
32,48.9,0,0,0,3.58,0
26.2,45,0,0,0,8.95,0
16.2,37.9,0,0,0,7.38,0
42.1,70,0.35,0,0,12.97,0
32,69.1,0,0,0,5.37,0
33.1,45,0.03,0,0,5.82,0
24.3,59,0,0,0,6.93,0
42.1,62.1,0.23,0,0,10.51,0
39,80.1,0,0,0,2.68,0
52,86,0,0,0,6.26,0
53.1,71.1,0,0,0,6.04,0
44.1,60.1,0,0,0,9.62,0
43,64,1.42,0,0,6.93,0
39.9,73.9,0,0,0,6.49,0
37.9,63,0.18,0,0,6.26,0
52,64.9,0.05,0,0,6.93,0
63,89.1,0.07,0,0,8.72,0
68,89.1,0,0,0,8.05,0
66.9,79,3.38,0,0,8.95,0
46.9,71.1,0,0,0,5.37,0
53.1,78.1,0,0,0,5.59,0
52,82.9,0,0,0,2.24,0
64.9,91.9,0.02,0,0,4.7,0
72,91,0,0,0,7.61,0
69.1,84.9,0.08,0,0,3.58,0
69.1,95,0.08,0,0,4.25,0
70,97,0,0,0,7.38,0
75.9,97,0,0,0,9.84,0
71.1,88,0,0,0,6.04,0
69.1,86,0,0,0,2.46,0
70,93.9,4.21,0,0,7.61,0
71.1,91.9,0,0,0,5.59,0
68,88,1.45,0,0,5.37,0
64,73.9,1.01,0,0,5.59,0
70,89.1,0,0,0,2.24,0
69.1,86,0,0,0,2.46,0
60.1,79,0,0,0,6.49,0
60.1,82,0,0,0,4.47,0
64.9,91.9,0,0,0,1.34,0
71.1,91,0,0,0,5.59,0
63,80.1,0,0,0,6.93,0
57.9,84,0.63,0,0,8.05,0
60.1,81,0,0,0,4.03,0
44.1,64.9,0,0,0,2.91,0
43,70,0,0,0,2.01,0
55,78.1,0.18,0,0,7.83,0
37,53.1,0,0,0,6.71,0
29.1,64,0,0,0,3.36,0
44.1,59,0,0,0,7.38,0
23.2,43,0,0,0,5.59,0
28.2,59,0,0,0,7.38,0
48,64.9,0.1,0,0,5.37,0
36,66,0,0,0,8.72,0
46,55,0,0,0,6.49,0
31.1,50,0,0,0,5.37,0
37,46.9,0.9,0,0,2.46,0
26.2,46,0,0,0,1.34,0
41,54,0,0,0,2.91,0
48.9,69.1,0.29,0,0,10.07,0
17.2,48.9,0,0,0,0.89,0
36,48,1.29,0,0,2.01,0
31.1,44.1,0.03,0,0,11.41,0
39,66.9,0,0,0,6.26,0
35.1,41,0.67,0,0,6.93,0
29.1,55,0,0,0,4.7,0
29.1,48,0,0,0,8.05,0
17.2,42.1,0,0,0,4.25,0
19.2,30.2,0.09,1.42,0,4.47,0
18.1,46,0.36,1.89,1.18,4.25,0
28.2,35.1,0.67,0,1.18,3.58,0
20.1,57.9,0,0,0,6.04,0
48.9,66,0,0,0,7.83,0
48,73,0,0,0,6.26,0
55,86,0.22,0,0,8.28,1
57.9,82.9,0,0,0,9.17,1
55.9,82.9,0,0,0,10.29,0
53.1,60.1,0.19,0,0,5.14,1
52,77,0,0,0,2.91,0
46.9,60.1,0,0,0,5.14,0
33.1,66,0,0,0,5.59,0
42.1,75.9,0,0,0,2.91,0
46,48,0.58,0,0,14.09,1
46.9,55.9,0.01,0,0,2.68,0
28.9,57.9,0,0,0,3.36,0
34,55.9,0,0,0,2.24,1
36,42.1,0.29,0,0,2.91,1
39,53.1,0,0,0,6.71,0
30.9,46,0,0,0,8.05,0
21.9,32,0,0,0,9.62,0
15.1,45,0,0,0,3.8,0
19,46,0,0,0,1.79,0
28,63,0,0,0,2.01,0
45,68,1.46,0,0,7.38,1
37,41,0.65,0,0,9.84,1
30,63,0,0,0,5.82,0
19,28,0.61,3.58,2.99,10.29,1
30,37,0.02,0,0,6.26,1
28,50,0,0,0,6.71,0
39.9,53.1,0,0,0,2.68,0
30,42.1,0,0.12,0,8.5,1
36,51.1,0,0,0,5.59,0
28.9,55.9,0,0,0,2.46,0
24.1,63,0,0,0,2.24,0
45,68,0,0,0,2.01,0
44.1,66,0,0,0,14.54,1
39,66,0.01,0,0,11.63,1
39,73.9,0,0,0,4.7,0
48.9,75.9,0,0,0,9.62,0
32,57.9,0,0,0,6.04,0
46,66,0.61,0,0,5.82,1
51.1,79,0,0,0,6.93,1
39.9,68,0,0,0,3.36,0
44.1,75,0,0,0,2.91,0
50,68,0,0,0,7.61,0
72,78.1,0,0,0,11.41,1
48.9,68,0,0,0,6.93,0
64.9,80.1,1.08,0,0,3.36,1
64,78.1,0,0,0,7.38,1
70,91.9,0,0,0,7.61,0
73,91.9,0,0,0,7.83,1
72,96.1,1.23,0,0,5.59,1
73,91,0.16,0,0,4.92,1
73,97,0.05,0,0,4.7,1
73,99,0,0,0,5.14,0
64,81,0,0,0,5.37,0
57.9,82.9,0,0,0,3.8,0
66,100.9,0,0,0,3.8,0
73,99,0.01,0,0,4.7,1
73.9,87.1,0.14,0,0,6.49,1
72,91.9,0.23,0,0,3.36,1
77,97,0,0,0,9.62,0
75.9,100,0,0,0,5.82,1
73.9,97,0.46,0,0,5.59,1
72,91.9,0,0,0,3.8,0
75.9,97,0.05,0,0,4.25,1
66.9,91,0,0,0,2.91,0
66,89.1,0,0,0,4.7,0
57.9,91.9,0,0,0,3.58,0
68,93.9,0,0,0,11.86,0
53.1,68,0,0,0,4.92,0
52,87.1,0,0,0,2.01,0
54,79,0,0,0,3.13,0
39,73.9,0,0,0,2.68,0
64,81,0.53,0,0,10.07,1
61,82,0,0,0,6.71,1
44.1,75,0,0,0,4.7,0
48,54,0.72,0,0,2.24,1
37.9,53.1,0.16,0,0,3.36,1
30.9,66.9,0,0,0,3.13,0
32,70,0,0,0,2.01,0
39.9,69.1,0,0,0,3.8,0
43,73,0,0,0,4.25,0
41,61,0,0,0,4.03,1
48.9,72,0.01,0,0,11.86,1
16,37,0,0,0,5.59,0
25,42.1,0,0,0,4.03,0
26.1,33.1,0.5,6.69,2.99,7.16,1
19,46.9,0,0,2.01,4.7,0
26.1,45,0,0,0,2.01,0
30.9,46,0,0,0,5.37,1
26.1,34,0.12,0.31,0,4.7,1
28,32,0.08,0,0,5.82,1
16,46,0,0,0,2.24,0
30,51.1,0.17,0,0,2.91,1
35.1,46.9,0,0,0,9.4,0
32,44.1,0,0,0,5.14,1
33.1,37,0.45,0,0,3.13,1
64.9,89.1,0,0,0,4.47,0
71.1,90,0,0,0,7.61,0
64,81,0.44,0,0,7.83,0
61,82.9,0,0,0,4.25,0
48,78.1,0,0,0,4.7,0
55.9,84,0,0,0,4.92,0
54,71.1,0,0,0,6.04,0
50,79,0,0,0,3.36,0
37.9,64,0,0,0,3.8,0
37,64,0,0,0,1.79,0
35.1,69.1,0,0,0,1.34,0
32,57.9,0,0,0,4.92,0
30.2,51.1,0,0,0,6.49,0
30.2,54,0.02,0,0,8.05,0
31.1,68,0,0,0,4.7,0
26.2,51.1,0,0,0,6.71,0
57.9,82.9,0.05,0,0,11.41,0
37,64,0,0,0,7.16,0
50,77,0,0,0,3.36,0
37,55.9,0,0,0,4.47,0
59,79,0.97,0,0,17.22,0
53.1,79,0,0,0,5.14,0
57,87.1,0,0,0,3.58,0
60.1,75.9,0,0,0,7.61,0
66.9,71.1,0.69,0,0,4.47,0
68,86,0,0,0,4.7,0
61,84.9,0,0,0,3.8,0
64,82.9,0,0,0,3.8,0
55,73,0,0,0,7.38,0
66.9,89.1,0,0,0,8.05,0
66,93,0,0,0,5.82,0
70,91.9,0.09,0,0,11.86,0
60.1,84.9,0,0,0,3.36,0
59,82.9,0,0,0,3.8,0
69.1,87.1,0.05,0,0,7.83,0
73,90,0,0,0,9.17,0
27.1,43,0,0,0,5.82,0
21.2,43,0,0,0,8.72,0
26.1,46,0.03,0.39,0,4.25,0
39.9,71.1,0,0,0,7.61,0
33.1,64.9,0,0,0,9.17,0
39.9,57,0,0,0,9.17,0
34,54,0,0,0,5.82,0
39,61,0.23,0,0,8.72,1
42.1,55.9,0.1,0,0,8.05,1
42.1,57,0,0,0,3.58,0
39,50,0.34,0,0,8.05,1
28.9,62.1,0,0,0,1.34,0
48,57,1.04,0,0,5.59,1
60.1,84,0,0,0,11.63,0
43,75,0,0,0,2.01,0
48.9,75.9,0,0,0,9.62,0
50,80.1,0,0,0,10.07,0
66,91.9,0,0,0,5.59,0
70,91.9,0,0,0,3.8,0
68,93.9,0,0,0,6.26,0
73,98.1,0,0,0,4.7,1
64.9,87.1,1.08,0,0,5.37,1
70,89.1,0,0,0,5.37,0
62.1,82.9,0,0,0,4.25,0
46.9,73.9,0,0,0,4.7,0
43,66.9,0,0,0,2.01,0
37.9,55,0,0,0,8.28,0
39.9,70,0,0,0,0.89,0
62.1,79,0,0,0,11.63,1
37.9,64,0,0,0,0.89,0
30,55,0,0,0,3.58,0
27,48.9,0,0,0,6.26,0
36,53.1,0,0,0,4.03,1
46,69.1,0.22,0,0,11.18,1
48.9,69.1,0.02,0,0,6.71,1
37.9,55,0.23,0,0,4.03,1
21.9,52,0,0,0,3.36,0
30,48.9,0,0,0.98,5.14,0
33.1,48.9,0.24,0,0,2.01,1
48,71.1,0.05,0,0,9.84,1
34,70,0,0,0,7.16,0
39.9,51.1,0.01,0,0,6.71,1
39.9,68,0.03,0,0,6.71,1
46.9,73.9,0,0,0,2.46,0
54,77,0,0,0,6.04,0
72,90,0,0,0,4.7,1
64,82,0.39,0,0,4.7,1
61,82.9,0,0,0,4.92,0
57,89.1,0,0,0,4.7,0
50,71.1,0.67,0,0,5.82,1
70,89.1,0,0,0,4.92,0
57.9,82.9,0,0,0,3.58,0
72,96.1,0,0,0,9.4,0
72,99,0.29,0,0,8.05,1
73,93,0,0,0,4.7,0
70,93.9,0,0,0,3.58,0
64,89.1,0,0,0,2.91,0
69.1,89.1,0,0,0,3.36,0
69.1,91.9,0,0,0,4.92,0
66.9,90,1.36,0,0,4.7,1
69.1,87.1,0,0,0,3.13,0
64,87.1,0,0,0,1.57,0
42.1,68,0,0,0,4.03,0
44.1,77,0,0,0,6.26,0
34,62.1,0.54,0,0,6.93,1
39,70,0,0,0,4.92,0
30.9,64,0,0,0,0.67,0
30,46.9,0,0,0,6.26,0
39,60.1,0,0,0,2.24,0
34,54,0,0,0,3.36,0
32,37,0,0,0,8.05,0
64.9,84,0,0,0,13.65,0
50,80.1,0,0,0,6.04,0
69.1,87.1,0.14,0,0,8.5,0
63,68,0.02,0,0,7.16,0
64.9,89.1,0,0,0,11.18,0
66.9,88,0.25,0,0,4.47,0
72,99,0,0,0,3.13,0
72,95,0.23,0,0,4.7,0
73,95,0,0,0,6.49,0
64,69.1,1.02,0,0,12.3,0
55.9,60.1,0.12,0,0,11.18,0
51.1,73,0,0,0,5.14,0
51.1,78.1,0,0,0,2.91,0
32,60.1,0,0,0,1.79,0
34,70,0,0,0,2.91,0
52,64,0,0,0,9.84,0
63,73,0.46,0,0,10.29,0
64.9,75.9,0,0,0,9.62,0
36,64.9,0,0,0,0.67,0
39.9,62.1,0,0,0,3.13,0
36,52,0,0,0,3.36,0
50,73,0,0,0,2.91,0
45,54,0.18,0,0,5.82,0
27.1,60.1,0,0,0,5.82,0
41,63,0,0,0,4.92,0
57,75,0,0,0,9.4,0
63,79,0.44,0,0,4.47,0
60.1,82,0,0,0,6.71,0
57.9,81,0.12,0,0,1.34,0
48,66.9,0,0,0,5.14,0
51.1,68,0.02,0,0,2.68,0
70,84.9,0,0,0,5.37,0
70,89.1,0.69,0,0,10.96,0
66.9,88,0.05,0,0,5.82,0
55.9,88,0,0,0,3.8,0
66.9,91,0,0,0,10.07,0
68,90,0,0,0,4.03,0
70,89.1,0,0,0,4.92,0
70,90,0,0,0,4.03,0
73,91,0.28,0,0,4.03,0
73,88,0.18,0,0,3.8,0
75,91,0,0,0,5.59,0
73,91.9,0,0,0,5.37,0
73.9,91.9,0,0,0,4.03,0
75,97,0,0,0,7.61,0
75,91,0.38,0,0,2.68,0
66,89.1,0,0,0,3.58,0
71.1,79,1.3,0,0,5.59,0
71.1,75,0.02,0,0,7.38,0
64.9,73.9,0.36,0,0,9.4,0
48,79,0,0,0,2.68,0
52,72,0,0,0,2.68,0
55.9,78.1,0,0,0,7.61,0
46.9,75,0.14,0,0,6.71,0
41,46.9,0.32,0,0,3.58,0
37,62.1,0.03,0,0,5.37,0
37.9,55,0,0,0,2.68,0
44.1,51.1,0,0,0,4.47,0
46.9,62.1,0.04,0,0,8.28,0
36,63,0,0,0,1.34,0
51.1,55,0.38,0,0,3.58,0
36,73,0,0,0,7.61,0
25.2,54,0,0,0,2.46,0
37,75,0,0,0,6.04,0
41,69.1,0,0,0,10.74,0
31.1,50,0,0,0,4.47,0
39,64,0,0,0,8.28,0
53.1,78.1,0.32,0,0,6.71,0
55.9,84.9,0,0,0,5.82,0
60.1,84.9,0,0,0,4.7,0
31.1,43,0,0,0,5.14,0
36,61,0,0,0,3.58,0
43,61,0,0,0,7.38,0
18.1,30.2,0,0,1.18,9.62,0
41,64,0.11,0,0,6.71,0
31.1,68,0,0,0,1.12,0
46.9,70,0.83,0,0,15.66,0
29.1,59,0,0,0,5.37,0
61,78.1,0,0,0,9.84,0
32,42.1,0.05,0,0,6.93,0
32,53.1,0,0,0,6.04,0
45,75,0,0,0,7.61,0
37.9,62.1,0,0,0,5.37,0
44.1,75,0,0,0,13.87,0
34,64.9,0,0,0,2.91,0
37,68,0,0,0,4.47,0
55,73.9,0,0,0,7.61,0
53.1,77,0,0,0,7.83,0
59,87.1,0.18,0,0,9.17,0
66.9,91.9,0,0,0,6.26,0
64.9,86,0,0,0,5.82,0
69.1,82,0.62,0,0,4.47,0
57,82,0,0,0,3.13,0
62.1,84.9,0,0,0,4.92,0
68,89.1,0,0,0,2.68,0
73.9,91.9,0.18,0,0,8.72,0
64.9,86,0,0,0,3.58,0
68,89.1,1.11,0,0,5.59,0
68,91.9,0,0,0,2.91,0
71.1,91,0,0,0,4.03,0
69.1,81,0.1,0,0,7.61,0
48,70,0,0,0,3.36,0
43,62.1,0,0,0,4.47,0
39,69.1,0,0,0,3.13,0
60.1,70,0,0,0,11.86,0
51.1,64.9,0,0,0,7.16,0
33.1,59,0,0,0,1.57,0
29.1,50,0,0,0,1.79,0
42.1,48.9,0.23,0,0,3.58,0
46,64.9,0.04,0,0,14.99,0
26.2,50,0,0,0,1.57,0
46,66.9,0,0,0,9.17,0
37,57,0,0,0,9.4,0
30.2,39,0.07,0,0,5.59,0
31.1,41,0,0,0,3.58,0
28.2,46.9,0,0,0,1.34,0
26.2,59,0.61,0,0,12.3,0
41,48,0.17,0,0,5.37,0
34,39.9,0.24,0,0,4.47,0
37.9,63,0.42,0,0,6.71,0
30,63,0,0,0,3.8,0
39.9,50,0.29,0,0,3.13,0
39,46.9,0.65,0,0,7.38,0
42.1,50,0.81,0,0,6.93,0
32,44.1,0,0,0,5.14,0
27,42.1,0,0,0,5.59,0
57.9,73.9,0.31,0,0,13.42,0
35.1,57,0,0,0,3.8,0
39,55.9,0.06,0,0,10.07,0
24.3,50,0,0,0,3.58,0
4.1,30.2,0,0,0,2.68,0
29.1,48,0,0,0,4.03,0
33.1,50,0,0,0,3.36,0
43,64.9,0.08,0,0,4.47,0
64,72,0,0,0,14.99,0
37,57.9,0,0,0,6.49,0
39.9,55.9,0.06,0,0,6.93,0
35.1,61,0,0,0,2.24,0
41,55,0,0,0,14.99,0
32,42.1,0.45,0,0,4.47,0
34,61,0,0,0,3.58,0
48,75,0.18,0,0,3.36,0
68,86,0.72,0,0,4.7,0
69.1,88,0,0,0,4.92,0
75,95,0,0,0,6.49,0
72,95,0.03,0,0,4.92,0
57,87.1,0,0,0,3.58,0
72,87.1,0.01,0,0,7.61,0
63,90,0,0,0,7.16,0
71.1,91,0.84,0,0,4.25,0
73,87.1,0.22,0,0,5.37,0
71.1,89.1,0.26,0,0,7.83,0
72,91,0.04,0,0,4.47,0
55,82,0,0,0,4.7,0
69.1,91.9,0.27,0,0,3.8,0
71.1,93,0.19,0,0,4.92,0
69.1,91,0,0,0,1.12,0
72,88,1.32,0,0,11.63,0
69.1,84.9,0,0,0,3.36,0
68,90,0,0,0,3.8,0
50,53.1,0.07,0,0,5.37,0
28.2,51.1,0,0,0,4.03,0
44.1,51.1,1.19,0,0,2.91,0
37,59,0,0,0,1.57,0
42.1,68,0.02,0,0,8.72,0
52,62.1,0.32,0,0,5.14,0
25.2,46,0,0,0,3.8,0
46,60.1,0.54,0,0,7.16,0
